date,issue,closing_cross_price,NEAR_INDTV_CLRG_PR,closing_cross_share_vl,cross_qt,cross_vl_pct_ttl_volume,pct_indicative_near_clrg_prc
07/14/2009,AACC,7.72,,922,922,0.0075543429,
07/14/2009,AAON,20.32,,769,769,0.0043290043,
07/14/2009,AAPL,142.27,,163814,163814,0.0040790584,
07/14/2009,AATI,4.38,,4664,4664,0.0113942296,
07/14/2009,AAUK,14.35,,6370,6370,0.0025052918,
07/14/2009,AAWW,21.35,,2524,2524,0.0109867628,
07/14/2009,AAXJ,43.99,,359,359,0.0010576929,
07/14/2009,ABAT,3.77,,2977,2977,0.0107817785,
07/14/2009,ABAX,19.13,,5309,5309,0.0185654038,
07/14/2009,ABBC,8.18,,1349,1349,0.0156886005,
07/14/2009,ABCB,6.25,,838,838,0.0119013804,
07/14/2009,ABCO,23.36,,1063,1063,0.0072865613,
07/14/2009,ABCW,1.12,,200,200,0.0012125327,
07/14/2009,ABFS,27.25,,9355,9355,0.0139064795,
07/14/2009,ABII,30.92,,136,136,0.0185488271,
07/14/2009,ABIO,2.28,,100,100,,
07/14/2009,ABMD,7.85,,4629,4629,0.0117050598,
07/14/2009,ACAD,2.06,,500,500,0.0042411699,
07/14/2009,ACAP,38.56,,934,934,0.0180643664,
07/14/2009,ACAS,2.86,,36157,36157,0.009480148,
07/14/2009,ACAT,4.00,,757,757,0.0088302538,
07/14/2009,ACCL,5.83,,1881,1881,0.0176222597,
07/14/2009,ACET,6.32,,1765,1765,0.0108517885,
07/14/2009,ACGL,59.56,,7319,7319,0.0129639404,
07/14/2009,ACGY,9.87,,500,500,0.0013385483,
07/14/2009,ACIW,13.22,,9486,9486,0.0203560921,
07/14/2009,ACLI,12.47,,951,951,0.0022586713,
07/14/2009,ACLS,0.42,,600,600,0.0005921499,
07/14/2009,ACOR,23.26,,3392,3392,0.0075858213,
07/14/2009,ACPW,0.72,,200,200,0.0088920505,
07/14/2009,ACTG,7.10,,3871,3871,0.0189091229,
07/14/2009,ACTI,2.70,,2925,2925,0.2620498119,
07/14/2009,ACTL,10.93,,2321,2321,0.0131493966,
07/14/2009,ACTU,4.68,,2857,2857,0.0072965297,
07/14/2009,ACUR,5.34,,503,503,0.0121222345,
07/14/2009,ACXM,8.24,,20657,20657,0.0312819907,
07/14/2009,ADBE,28.30,,136769,136769,0.0126438787,
07/14/2009,ADCT,6.95,,66539,66539,0.0352932315,
07/14/2009,ADLR,1.64,,5200,5200,0.036416606,
07/14/2009,ADP,34.44,,84377,84377,0.0114110777,
07/14/2009,ADPI,10.14,,1028,1028,0.0640977678,
07/14/2009,ADPT,2.62,,10141,10141,0.0136589426,
07/14/2009,ADSK,18.04,,217463,217463,0.0653679232,
07/14/2009,ADTN,21.74,,5409,5409,0.0042342995,
07/14/2009,ADVNB,0.33,,355,355,0.0017537013,
07/14/2009,ADVS,31.64,,3745,3745,0.0203224459,
07/14/2009,AEIS,10.85,,2735,2735,0.0119512163,
07/14/2009,AEPI,28.24,,579,579,0.0297701681,
07/14/2009,AFAM,24.65,,676,676,0.0021625357,
07/14/2009,AFCE,6.50,,1559,1559,0.0097762561,
07/14/2009,AFFX,5.05,,7581,7581,0.0109327207,
07/14/2009,AFFY,19.61,,284,284,0.0084574151,
07/14/2009,AFSI,11.22,,2314,2314,0.0091419812,
07/14/2009,AGII,30.96,,4810,4810,0.0163874107,
07/14/2009,AGNC,21.51,,63221,63221,0.2768540212,
07/14/2009,AGYS,4.02,,1911,1911,0.013885155,
07/14/2009,AHCI,2.13,,2874,2874,0.1254967032,
07/14/2009,AHGP,19.44,,335,335,0.0053185578,
07/14/2009,AHII,1.40,,400,400,0.0051962898,
07/14/2009,AIMC,8.21,,4089,4089,0.0187118179,
07/14/2009,AINV,5.33,,27754,27754,0.0156322341,
07/14/2009,AIPC,29.81,,3807,3807,0.0072013483,
07/14/2009,AIRM,27.08,,1066,1066,0.0082948807,
07/14/2009,AIRV,6.07,,1845,1845,0.0048177355,
07/14/2009,AIXG,14.62,,5000,5000,0.2257234436,
07/14/2009,AKAM,19.07,,54485,54485,0.0161975949,
07/14/2009,AKRX,0.99,,3517,3517,0.0120030443,
07/14/2009,ALCO,27.35,,219,219,0.0226684608,
07/14/2009,ALGN,9.69,,13766,13766,0.0245364437,
07/14/2009,ALGT,43.20,,3462,3462,0.0078203532,
07/14/2009,ALKS,10.18,,12036,12036,0.013849319,
07/14/2009,ALLI,6.04,,1875,1875,0.0499613632,
07/14/2009,ALLT,3.11,,200,200,0.0476190476,
07/14/2009,ALNC,26.58,,252,252,0.0097943954,
07/14/2009,ALNY,20.36,,3660,3660,0.0071238241,
07/14/2009,ALOG,34.19,,1257,1257,0.0037227568,
07/14/2009,ALOY,5.83,,400,400,0.0006028636,
07/14/2009,ALSK,6.50,,3257,3257,0.0057857479,
07/14/2009,ALTH,7.64,,4372,4372,0.0095948734,
07/14/2009,ALTR,16.56,,62239,62239,0.0055502436,
07/14/2009,ALVR,4.10,,100,100,0.0001588605,
07/14/2009,ALXA,2.02,,200,200,0.0009754194,
07/14/2009,ALXN,38.95,,6258,6258,0.0070758077,
07/14/2009,AMAG,46.29,,5898,5898,0.0159742159,
07/14/2009,AMAT,11.64,,266589,266589,0.0094603751,
07/14/2009,AMCC,7.96,,38676,38676,0.0468384415,
07/14/2009,AMCN,5.58,,100,100,0.0009958275,
07/14/2009,AMCS,2.95,,2172,2172,0.0142644171,
07/14/2009,AMED,32.85,,2509,2509,0.004021394,
07/14/2009,AMGN,58.10,,204333,204333,0.0229959969,
07/14/2009,AMKR,5.00,,21006,21006,0.0080729711,
07/14/2009,AMLN,12.10,,10194,10194,0.0039907782,
07/14/2009,AMMD,15.52,,6698,6698,0.0095804512,
07/14/2009,AMNB,20.53,,376,376,0.2646023927,
07/14/2009,AMPH,21.89,,492,492,0.0159043155,
07/14/2009,AMPL,2.20,,1294,1294,0.0311087605,
07/14/2009,AMRI,9.28,,3655,3655,0.0210563307,
07/14/2009,AMSC,23.14,,4883,4883,0.0065243504,
07/14/2009,AMSF,14.93,,4610,4610,0.0269138931,
07/14/2009,AMSG,20.53,,3503,3503,0.0163009083,
07/14/2009,AMSWA,5.67,,1369,1369,0.0102479265,
07/14/2009,AMTD,17.52,,85552,85552,0.0203439776,
07/14/2009,AMWD,23.01,,826,826,0.0126031828,
07/14/2009,AMZN,81.95,,61239,61239,0.0069085348,
07/14/2009,ANAD,3.85,,6743,6743,0.0150480811,
07/14/2009,ANAT,77.50,,1249,1249,0.0180893897,
07/14/2009,ANCI,4.15,,652,652,0.0509454602,
07/14/2009,ANDE,27.97,,3247,3247,0.0105871689,
07/14/2009,ANDS,1.51,,427,427,0.0192706923,
07/14/2009,ANEN,17.94,,1094,1094,0.0151536139,
07/14/2009,ANGO,12.41,,6231,6231,0.0457778039,
07/14/2009,ANSS,29.57,,7769,7769,0.0099182691,
07/14/2009,ANTP,2.90,,237,237,0.0231219512,
07/14/2009,APAC,5.01,,5099,5099,0.1499705882,
07/14/2009,APAGF,17.78,,723,723,0.0944480732,
07/14/2009,APEI,35.63,,1813,1813,0.0061674848,
07/14/2009,APFC,6.90,,200,200,0.0102674675,
07/14/2009,APKT,9.59,,3980,3980,0.0146908463,
07/14/2009,APOG,12.60,,5474,5474,0.0128713989,
07/14/2009,APOL,66.89,,33056,33056,0.0108927322,
07/14/2009,APP,3.60,,1200,1200,,
07/14/2009,APPY,2.04,,200,200,0.0032226358,
07/14/2009,APSG,23.75,,1114,1114,0.0071585089,
07/14/2009,APWR,8.22,,1000,1000,0.0010373067,
07/14/2009,ARAY,6.08,,3434,3434,0.0087112257,
07/14/2009,ARBA,8.56,,9852,9852,0.0049815442,
07/14/2009,ARCC,7.39,,10637,10637,0.0128475493,
07/14/2009,AREX,7.00,,740,740,0.0047984956,
07/14/2009,ARGN,6.06,,1718,1718,0.0051677255,
07/14/2009,ARIA,1.58,,5518,5518,0.0066574571,
07/14/2009,ARII,7.97,,717,717,0.0071720799,
07/14/2009,ARLP,33.46,,2814,2814,0.0345191364,
07/14/2009,ARMH,6.19,,464,464,0.0011251076,
07/14/2009,ARNA,4.00,,8712,8712,0.0116938969,
07/14/2009,AROW,27.26,,560,560,0.0082863527,
07/14/2009,ARQL,5.95,,3287,3287,0.0168668764,
07/14/2009,ARRS,11.70,,11717,11717,0.0072598734,
07/14/2009,ARRY,3.00,,2980,2980,0.0134717275,
07/14/2009,ARST,17.25,,2590,2590,0.0127132163,
07/14/2009,ARTG,3.95,,29112,29112,0.0178303908,
07/14/2009,ARTL,4.57,,100,100,0.0346140533,
07/14/2009,ARTNA,17.10,,382,382,0.009930848,
07/14/2009,ARTX,1.60,,173,173,0.0044123648,
07/14/2009,ARUN,7.90,,10215,10215,0.0055584335,
07/14/2009,ARYX,2.73,,1282,1282,0.0209655263,
07/14/2009,ASBC,12.08,,19253,19253,0.0200706167,
07/14/2009,ASCA,19.18,,2642,2642,0.0039753355,
07/14/2009,ASCMA,26.23,,1411,1411,0.0023587587,
07/14/2009,ASEI,65.45,,711,711,0.0060606577,
07/14/2009,ASGN,3.81,,3515,3515,0.0116252919,
07/14/2009,ASGR,15.84,,759,759,0.022454957,
07/14/2009,ASIA,16.78,,3768,3768,0.0115252972,
07/14/2009,ASML,22.00,,7300,7300,0.0019508107,
07/14/2009,ASPM,5.92,,1073,1073,0.0119296451,
07/14/2009,ASTE,24.74,,2511,2511,0.006457121,
07/14/2009,ASTI,7.81,,959,959,0.006607277,
07/14/2009,ASYS,4.84,,750,750,0.0200186841,
07/14/2009,ATAC,14.32,,2909,2909,0.021021824,
07/14/2009,ATEC,3.41,,1846,1846,0.0193340944,
07/14/2009,ATHN,34.19,,5554,5554,0.0122220926,
07/14/2009,ATHR,20.24,,9283,9283,0.0050858118,
07/14/2009,ATLO,22.58,,403,403,0.0171591586,
07/14/2009,ATLS,16.95,,5407,5407,0.0155007869,
07/14/2009,ATMI,16.65,,4842,4842,0.0109849722,
07/14/2009,ATML,3.91,,25069,25069,0.0046337192,
07/14/2009,ATNI,36.39,,1196,1196,0.026726257,
07/14/2009,ATPG,6.46,,5330,5330,0.0063542854,
07/14/2009,ATRI,123.94,,244,244,0.0375153752,
07/14/2009,ATRO,10.51,,569,569,0.0140817185,
07/14/2009,ATSG,2.65,,3943,3943,0.0248116942,
07/14/2009,ATSI,3.19,,3722,3722,0.023107822,
07/14/2009,ATVI,11.35,,97407,97407,0.006615687,
07/14/2009,AUBN,22.90,,144,144,0.48,
07/14/2009,AUXL,28.87,,1475,1475,0.0051023056,
07/14/2009,AVAV,31.20,,6086,6086,0.0144987267,
07/14/2009,AVCT,13.67,,4427,4427,0.0056949381,
07/14/2009,AVGN,1.30,,200,200,0.0004734232,
07/14/2009,AVID,11.57,,4003,4003,0.0134760726,
07/14/2009,AVII,1.55,,4742,4742,0.0300745204,
07/14/2009,AVNR,2.03,,6800,6800,0.0261908155,
07/14/2009,AVTR,18.05,,374,374,0.0070319257,
07/14/2009,AXTI,1.40,,200,200,0.004471372,
07/14/2009,AXYS,53.62,,918,918,0.0040623963,
07/14/2009,BABY,10.31,,8374,8374,0.037960453,
07/14/2009,BAGL,10.12,,333,333,0.0087038344,
07/14/2009,BAMM,8.88,,432,432,0.0061833536,
07/14/2009,BANF,33.55,,505,505,0.0099421191,
07/14/2009,BANR,3.02,,1368,1368,0.0134824816,
07/14/2009,BARE,7.95,,16060,16060,0.0496228846,
07/14/2009,BARI,20.22,,224,224,0.0372712146,
07/14/2009,BBBB,28.58,,3747,3747,0.0089526135,
07/14/2009,BBBY,31.29,,71971,71971,0.0114042606,
07/14/2009,BBEP,7.32,,541,541,0.0023191115,
07/14/2009,BBND,4.68,,3324,3324,0.0095934612,
07/14/2009,BBOX,31.21,,1951,1951,0.0165563476,
07/14/2009,BBSI,10.35,,3083,3083,0.6228282828,
07/14/2009,BCON,0.68,,400,400,0.0008179474,
07/14/2009,BCPC,24.31,,1330,1330,0.0102922058,
07/14/2009,BCRX,4.01,,1337,1337,0.0085106112,
07/14/2009,BCSI,17.09,,5934,5934,0.0074375349,
07/14/2009,BDCO,0.45,,600,600,0.0309007571,
07/14/2009,BDGE,27.20,,383,383,0.5471428571,
07/14/2009,BDSI,5.60,,2000,2000,0.0711591831,
07/14/2009,BEAT,6.20,,4296,4296,0.0249397695,
07/14/2009,BEAV,13.35,,4484,4484,0.0019028446,
07/14/2009,BEBE,6.07,,4362,4362,0.0156999658,
07/14/2009,BECN,14.44,,5136,5136,0.0077655224,
07/14/2009,BELFB,16.47,,734,734,0.0146583057,
07/14/2009,BEXP,2.90,,33820,33820,0.0620449138,
07/14/2009,BFIN,9.47,,1760,1760,0.0215897939,
07/14/2009,BFSB,11.54,,189,189,0.0219359331,
07/14/2009,BGCP,4.02,,11876,11876,0.05030072,
07/14/2009,BGFV,11.46,,2433,2433,0.0112673839,
07/14/2009,BHB,30.75,,100,100,,
07/14/2009,BHLB,21.05,,993,993,0.0252839028,
07/14/2009,BIDU,299.05,,1717,1717,0.0002691231,
07/14/2009,BIDZ,3.16,,200,200,0.0029408737,
07/14/2009,BIIB,45.94,,71756,71756,0.0149826748,
07/14/2009,BIOD,4.87,,1146,1146,0.0078009067,
07/14/2009,BIOS,5.84,,4270,4270,0.0270311333,
07/14/2009,BJGP,4.80,,2013,2013,0.0228640876,
07/14/2009,BJRI,16.54,,5209,5209,0.0184958332,
07/14/2009,BKCC,6.46,,1370,1370,0.018019914,
07/14/2009,BKMU,9.04,,9838,9838,0.0457728294,
07/14/2009,BKYF,27.21,,189,189,0.0379975875,
07/14/2009,BLDR,4.11,,1000,1000,0.0085959393,
07/14/2009,BLKB,14.10,,8190,8190,0.0221176801,
07/14/2009,BLTI,1.69,,600,600,0.0200762899,
07/14/2009,BLUD,14.46,,11014,11014,0.0169648427,
07/14/2009,BMRC,27.83,,318,318,0.159,
07/14/2009,BMRN,14.58,,2002,2002,0.0014858687,
07/14/2009,BMTC,18.36,,460,460,0.0249755674,
07/14/2009,BMTI,9.48,,1678,1678,0.0228321065,
07/14/2009,BNCL,9.61,,3465,3465,0.0162636352,
07/14/2009,BNHNA,7.18,,811,811,0.0050864253,
07/14/2009,BOBE,29.18,,4783,4783,0.0136554142,
07/14/2009,BOFL,3.19,,805,805,0.0311123135,
07/14/2009,BOKF,37.07,,2041,2041,0.0101476152,
07/14/2009,BOLT,10.13,,633,633,0.0061659848,
07/14/2009,BOOM,15.41,,1555,1555,0.0047818787,
07/14/2009,BORL,1.53,,800,800,0.001743303,
07/14/2009,BPAX,1.51,,1000,1000,0.0168956021,
07/14/2009,BPFH,4.78,,9927,9927,0.0120225409,
07/14/2009,BPOP,1.35,,41102,41102,0.018717201,
07/14/2009,BPSG,5.86,,2781,2781,0.0301110895,
07/14/2009,BPZ,5.71,,1200,1200,,
07/14/2009,BRCD,7.61,,37154,37154,0.012203674,
07/14/2009,BRCM,25.43,,81264,81264,0.00371063,
07/14/2009,BRKL,10.23,,12871,12871,0.0238702391,
07/14/2009,BRKR,8.16,,4200,4200,0.0059163846,
07/14/2009,BRKS,4.85,,8944,8944,0.0167536756,
07/14/2009,BRLI,30.13,,2797,2797,0.0211458207,
07/14/2009,BRNC,4.00,,1660,1660,0.0068341162,
07/14/2009,BSET,2.62,,100,100,0.0030876586,
07/14/2009,BSRR,12.86,,450,450,0.0165874157,
07/14/2009,BSTC,24.15,,372,372,,
07/14/2009,BUCY,25.15,,5802,5802,0.002481414,
07/14/2009,BUSE,6.26,,2057,2057,0.0209906527,
07/14/2009,BWEN,11.30,,1935,1935,,
07/14/2009,BWINB,19.91,,502,502,0.0085029981,
07/14/2009,BWLD,33.94,,2832,2832,0.0072879245,
07/14/2009,CA,17.09,,67288,67288,0.0067406359,
07/14/2009,CAAS,5.61,,374,374,0.0064303153,
07/14/2009,CAC,32.29,,563,563,0.0209839732,
07/14/2009,CACB,1.29,,600,600,0.0045941104,
07/14/2009,CACC,23.99,,371,371,0.0156302663,
07/14/2009,CADX,10.44,,1893,1893,0.0163410823,
07/14/2009,CAKE,17.10,,6389,6389,0.0030253798,
07/14/2009,CALD,2.83,,1591,1591,0.0163516583,
07/14/2009,CALM,25.43,,1543,1543,0.0091970055,
07/14/2009,CASS,34.35,,507,507,0.0173767008,
07/14/2009,CAST,6.75,,7793,7793,0.3630054034,
07/14/2009,CASY,26.62,,7575,7575,0.00832921,
07/14/2009,CATM,3.83,,824,824,0.0041257967,
07/14/2009,CATY,9.86,,8571,8571,0.0128427005,
07/14/2009,CAV,2.71,,300,300,,
07/14/2009,CAVM,16.79,,6297,6297,0.0107636794,
07/14/2009,CBAK,2.84,,2523,2523,0.0154027423,
07/14/2009,CBEY,14.23,,2034,2034,0.0089050782,
07/14/2009,CBNJ,7.86,,725,725,0.0763157895,
07/14/2009,CBNK,13.23,,398,398,0.0755935423,
07/14/2009,CBOU,4.95,,421,421,0.0208415842,
07/14/2009,CBRL,30.51,,3736,3736,0.0078872811,
07/14/2009,CBSH,32.08,,10575,10575,0.0201699425,
07/14/2009,CBST,16.79,,4859,4859,0.0059016577,
07/14/2009,CCBG,16.25,,2691,2691,0.0565823503,
07/14/2009,CCIX,2.74,,100,100,0.0043170437,
07/14/2009,CCMP,28.84,,10308,10308,0.0247328882,
07/14/2009,CCNE,15.56,,532,532,0.2279348757,
07/14/2009,CCOI,8.51,,3219,3219,0.0084599212,
07/14/2009,CCRN,6.69,,4511,4511,0.0249309163,
07/14/2009,CCRT,2.08,,2990,2990,0.0053655674,
07/14/2009,CCUR,5.32,,641,641,0.0716201117,
07/14/2009,CDNS,5.53,,16741,16741,0.001662469,
07/14/2009,CDZI,10.63,,771,771,0.0171649932,
07/14/2009,CECO,20.65,,9900,9900,0.0074327784,
07/14/2009,CEDC,25.10,,9387,9387,0.0122775214,
07/14/2009,CEGE,0.23,,1000,1000,0.0019077307,
07/14/2009,CELG,46.02,,116024,116024,0.0141673005,
07/14/2009,CELL,5.37,,9163,9163,0.0133916762,
07/14/2009,CENT,10.93,,413,413,0.0039267514,
07/14/2009,CENTA,9.86,,10881,10881,0.0231149651,
07/14/2009,CENX,5.47,,7874,7874,0.0050810916,
07/14/2009,CEPH,54.23,,21682,21682,0.0165195309,
07/14/2009,CERN,59.61,,10019,10019,0.0080862229,
07/14/2009,CETV,18.81,,1856,1856,0.0014991656,
07/14/2009,CEVA,8.72,,1204,1204,0.0119246883,
07/14/2009,CFFN,37.63,,1872,1872,0.0346750144,
07/14/2009,CFNB,12.00,,113,113,0.0743421053,
07/14/2009,CFNL,7.71,,6900,6900,0.0445583876,
07/14/2009,CFSG,12.59,,863,863,0.0095684761,
07/14/2009,CGNX,14.19,,3898,3898,0.0162155191,
07/14/2009,CH,14.58,,100,100,,
07/14/2009,CHBT,10.45,,549,549,0.5778947368,
07/14/2009,CHCO,29.76,,2735,2735,0.0223928867,
07/14/2009,CHDN,32.58,,1012,1012,0.0155589379,
07/14/2009,CHDX,11.75,,1121,1121,0.0149134594,
07/14/2009,CHEV,7.60,,171,171,0.045,
07/14/2009,CHFC,19.38,,1472,1472,0.0145018916,
07/14/2009,CHIC,12.55,,2223,2223,0.0101823945,
07/14/2009,CHIP,0.50,,250,250,0.0088996476,
07/14/2009,CHKE,19.60,,469,469,0.0123473041,
07/14/2009,CHKP,23.12,,34622,34622,0.0130888063,
07/14/2009,CHLN,5.05,,2700,2700,0.1391896072,
07/14/2009,CHRD,3.88,,1961,1961,0.0181364162,
07/14/2009,CHRS,4.11,,9175,9175,0.0063716207,
07/14/2009,CHRW,51.17,,53517,53517,0.0237193093,
07/14/2009,CHSI,24.47,,3133,3133,0.0097005013,
07/14/2009,CHTP,4.98,,1806,1806,0.0271440166,
07/14/2009,CHTT,64.93,,1491,1491,0.0049218479,
07/14/2009,CHUX,8.97,,6395,6395,0.0362002989,
07/14/2009,CIEN,9.66,,42373,42373,0.0090613496,
07/14/2009,CIK,2.83,,300,300,,
07/14/2009,CINF,22.13,,92113,92113,0.0489240616,
07/14/2009,CISG,14.20,,100,100,0.0076593137,
07/14/2009,CITP,5.93,,913,913,0.0090607757,
07/14/2009,CITZ,3.75,,131,131,0.0239051095,
07/14/2009,CIZN,30.71,,245,245,,
07/14/2009,CKEC,8.27,,677,677,0.0073976944,
07/14/2009,CKXE,6.39,,3782,3782,0.0225998829,
07/14/2009,CLCT,4.10,,5000,5000,0.1779612756,
07/14/2009,CLDA,9.59,,705,705,0.0117843711,
07/14/2009,CLDN,8.22,,1638,1638,0.0083360476,
07/14/2009,CLDX,7.03,,992,992,0.0095756593,
07/14/2009,CLMS,12.95,,2254,2254,0.0051684682,
07/14/2009,CLMT,15.72,,312,312,0.0045127137,
07/14/2009,CLNE,8.36,,10283,10283,0.024100367,
07/14/2009,CLRT,3.44,,1843,1843,0.015960441,
07/14/2009,CLUB,3.63,,1195,1195,0.0064438896,
07/14/2009,CLWR,6.16,,4731,4731,,
07/14/2009,CMCO,11.95,,1639,1639,0.0079353936,
07/14/2009,CMCSA,13.56,,395414,395414,0.0124122919,
07/14/2009,CMCSK,13.12,,61135,61135,0.005229679,
07/14/2009,CME,268.74,,27396,27396,0.0150084311,
07/14/2009,CMED,18.50,,652,652,0.0012236985,
07/14/2009,CMT,2.30,,200,200,,
07/14/2009,CMTL,32.61,,3870,3870,0.007884684,
07/14/2009,CNBC,8.51,,678,678,0.1359807461,
07/14/2009,CNBKA,19.16,,216,216,0.72,
07/14/2009,CNMD,15.19,,4316,4316,0.0189989875,
07/14/2009,CNQR,30.34,,10469,10469,0.0117483481,
07/14/2009,CNSL,11.35,,1436,1436,0.0035985736,
07/14/2009,CNXT,1.23,,200,200,0.0001062445,
07/14/2009,COBZ,4.84,,2572,2572,0.0327806171,
07/14/2009,COCO,14.69,,60267,60267,0.0281292094,
07/14/2009,CODI,8.65,,3241,3241,0.0210960028,
07/14/2009,COGO,5.22,,2568,2568,0.0071933579,
07/14/2009,COGT,10.84,,4489,4489,0.0048150254,
07/14/2009,COHR,19.11,,2232,2232,0.0116090376,
07/14/2009,COHU,8.94,,1639,1639,0.0136734881,
07/14/2009,COKE,54.25,,359,359,0.0155276817,
07/14/2009,COLB,10.25,,2106,2106,0.0153619467,
07/14/2009,COLM,31.28,,1562,1562,0.0050058968,
07/14/2009,COMS,3.84,,36173,36173,0.009047405,
07/14/2009,COMV,10.45,,1956,1956,0.0105773754,
07/14/2009,CONN,12.11,,1084,1084,0.0092054757,
07/14/2009,CORE,25.86,,1080,1080,0.0164026548,
07/14/2009,COST,45.03,,65631,65631,0.0079914172,
07/14/2009,CPBY,2.91,,2464,2464,0.0286992173,
07/14/2009,CPHD,8.99,,4128,4128,0.0078038895,
07/14/2009,CPII,9.34,,452,452,0.0068801754,
07/14/2009,CPKI,15.16,,9239,9239,0.0272399468,
07/14/2009,CPLA,58.99,,4292,4292,0.021544238,
07/14/2009,CPLP,9.20,,200,200,0.002357323,
07/14/2009,CPNO,15.63,,855,855,0.0016001407,
07/14/2009,CPRT,32.44,,4706,4706,0.0057656801,
07/14/2009,CPSI,33.70,,1203,1203,0.0066012939,
07/14/2009,CPSL,2.34,,2109,2109,0.008602826,
07/14/2009,CPST,0.77,,10305,10305,0.0080315432,
07/14/2009,CPTS,16.41,,2168,2168,0.0106508411,
07/14/2009,CPWM,1.35,,200,200,0.0035127777,
07/14/2009,CPWR,6.60,,118458,118458,0.0364426612,
07/14/2009,CRA,7.33,,10187,10187,0.0198165602,
07/14/2009,CRAI,24.56,,1252,1252,0.0202677545,
07/14/2009,CRAY,8.04,,5400,5400,0.0382758841,
07/14/2009,CRBC,0.64,,8589,8589,0.0078303203,
07/14/2009,CRDN,17.20,,5367,5367,0.014712897,
07/14/2009,CRED,10.80,,433,433,0.0570713062,
07/14/2009,CREE,27.09,,7142,7142,0.0092795788,
07/14/2009,CRF,11.80,,200,200,,
07/14/2009,CRFT,1.71,,200,200,0.0426712183,
07/14/2009,CRIS,1.40,,5114,5114,0.0746046566,
07/14/2009,CRMT,20.23,,740,740,0.0036232771,
07/14/2009,CROX,3.11,,8175,8175,0.0058366592,
07/14/2009,CRRC,14.79,,663,663,0.0125040077,
07/14/2009,CRTX,8.07,,1500,1500,0.3677371905,
07/14/2009,CRUS,4.34,,6914,6914,0.0052856499,
07/14/2009,CRVL,24.85,,583,583,0.0098316975,
07/14/2009,CRWN,1.51,,947,947,0.0173424166,
07/14/2009,CRXL,24.10,,134,134,0.0032251077,
07/14/2009,CRZO,17.93,,8275,8275,0.0134262054,
07/14/2009,CSBK,10.56,,572,572,0.0169803479,
07/14/2009,CSCO,18.73,,895924,895924,0.0115191314,
07/14/2009,CSCX,4.07,,1232,1232,0.0152529992,
07/14/2009,CSFL,8.06,,554,554,0.013494422,
07/14/2009,CSGP,36.12,,3176,3176,0.0149947122,
07/14/2009,CSGS,13.92,,3045,3045,0.008853623,
07/14/2009,CSHB,2.00,,523,523,5.23,
07/14/2009,CSII,8.55,,554,554,,
07/14/2009,CSIQ,11.13,,26763,26763,0.0282852858,
07/14/2009,CSKI,12.43,,1268,1268,0.0143284931,
07/14/2009,CSTR,25.80,,3840,3840,0.0147696852,
07/14/2009,CSUN,3.84,,500,500,0.0009564198,
07/14/2009,CSWC,72.16,,364,364,0.0208226074,
07/14/2009,CTAS,22.32,,61543,61543,0.033526215,
07/14/2009,CTBI,26.81,,2569,2569,0.0388847685,
07/14/2009,CTBK,2.25,,200,200,0.0027651808,
07/14/2009,CTCH,2.10,,200,200,0.0054174116,
07/14/2009,CTCM,10.40,,2955,2955,0.0060635285,
07/14/2009,CTCT,19.62,,1801,1801,0.0110575595,
07/14/2009,CTFO,4.75,,883,883,1.4716666667,
07/14/2009,CTGX,6.49,,1203,1203,0.0323430569,
07/14/2009,CTIC,1.35,,40595,40595,0.0442292271,
07/14/2009,CTRN,25.78,,1403,1403,0.0058522708,
07/14/2009,CTRP,45.21,,2214,2214,0.0025273857,
07/14/2009,CTSH,27.18,,88539,88539,0.0098490905,
07/14/2009,CTWS,20.87,,875,875,0.0269961743,
07/14/2009,CTXS,32.33,,81706,81706,0.0183270905,
07/14/2009,CUTR,8.22,,919,919,0.0213264643,
07/14/2009,CVBF,5.67,,31225,31225,0.0518009648,
07/14/2009,CVCO,29.00,,628,628,0.0143565828,
07/14/2009,CVGW,19.87,,641,641,0.0195808895,
07/14/2009,CVLT,16.53,,4791,4791,0.0154496058,
07/14/2009,CVTI,3.62,,200,200,0.0068359709,
07/14/2009,CWCO,15.03,,1074,1074,0.0116413931,
07/14/2009,CWEI,17.31,,796,796,0.0066057543,
07/14/2009,CWTR,5.63,,9579,9579,0.0080800395,
07/14/2009,CYBS,14.49,,12769,12769,0.0162982364,
07/14/2009,CYBX,17.26,,3631,3631,0.0090138398,
07/14/2009,CYCL,7.35,,21901,21901,0.0164840458,
07/14/2009,CYMI,29.81,,3552,3552,0.0110173356,
07/14/2009,CYNO,6.91,,602,602,0.0043162166,
07/14/2009,CYPB,8.99,,3238,3238,0.0026890539,
07/14/2009,CYTK,2.82,,1521,1521,0.0031447906,
07/14/2009,CYTR,1.13,,1400,1400,0.0081541365,
07/14/2009,CYTX,3.22,,1819,1819,0.0234843008,
07/14/2009,CZNC,20.34,,553,553,0.0276887643,
07/14/2009,DAKT,7.38,,3704,3704,0.0087789987,
07/14/2009,DBRN,14.07,,5364,5364,0.0060695761,
07/14/2009,DBTK,8.30,,1663,1663,0.0134797763,
07/14/2009,DCOM,9.86,,5088,5088,0.0274773048,
07/14/2009,DCTH,3.10,,1397,1397,0.0361140553,
07/14/2009,DDIC,4.61,,883,883,0.0376979892,
07/14/2009,DDMX,15.45,,849,849,0.0157239693,
07/14/2009,DDRX,17.63,,413,413,0.0395366648,
07/14/2009,DDUP,33.46,,5515,5515,0.0089013923,
07/14/2009,DECC,10.11,,889,889,0.0207511496,
07/14/2009,DECK,66.45,,1992,1992,0.0025336065,
07/14/2009,DELL,11.97,,702049,702049,0.0323345376,
07/14/2009,DENN,2.22,,5926,5926,0.0150687196,
07/14/2009,DEPO,3.16,,3377,3377,0.0130000616,
07/14/2009,DEST,17.60,,540,540,0.9407665505,
07/14/2009,DFR,4.28,,200,200,,
07/14/2009,DGICA,15.68,,715,715,0.0189549588,
07/14/2009,DGII,10.60,,2066,2066,0.0131814006,
07/14/2009,DGIT,19.73,,3544,3544,0.0279264016,
07/14/2009,DHIL,40.23,,138,138,0.0131216126,
07/14/2009,DHY,2.14,,800,800,,
07/14/2009,DIGA,1.44,,500,500,0.0037649752,
07/14/2009,DINED,11.83,,1071,1071,,
07/14/2009,DIOD,16.25,,3674,3674,0.0063712493,
07/14/2009,DISCA,22.92,,5332,5332,0.0017522096,
07/14/2009,DISCK,20.98,,8946,8946,0.0103815625,
07/14/2009,DISH,14.91,,17359,17359,0.0035174359,
07/14/2009,DITC,1.31,,130,130,0.0052442616,
07/14/2009,DIVX,5.32,,1999,1999,0.007268483,
07/14/2009,DLLR,13.35,,1848,1848,0.0061592609,
07/14/2009,DLTR,43.72,,9685,9685,0.0050020478,
07/14/2009,DMAN,8.34,,2586,2586,0.0155183898,
07/14/2009,DMF,7.76,,200,200,,
07/14/2009,DMLP,21.89,,213,213,0.0042284557,
07/14/2009,DMND,25.52,,1339,1339,0.0031580859,
07/14/2009,DNBK,13.26,,1190,1190,0.0108298978,
07/14/2009,DNDN,22.97,,5932,5932,0.0049315674,
07/14/2009,DNEX,58.49,,1505,1505,0.0072673015,
07/14/2009,DORM,15.12,,1058,1058,0.0307040455,
07/14/2009,DPTR,1.78,,14169,14169,0.0104934724,
07/14/2009,DPW,2.64,,400,400,,
07/14/2009,DRCO,10.74,,742,742,0.0420682617,
07/14/2009,DRIV,35.43,,4723,4723,0.0118640619,
07/14/2009,DROOY,7.91,,1000,1000,0.0063450569,
07/14/2009,DRRX,2.63,,5701,5701,0.0158272303,
07/14/2009,DRYS,5.76,,30127,30127,0.0011188117,
07/14/2009,DSCM,1.79,,5354,5354,0.0196297695,
07/14/2009,DSCO,0.42,,7427,7427,0.0253073547,
07/14/2009,DSGX,4.00,,100,100,0.0452898551,
07/14/2009,DSPG,6.84,,2081,2081,0.0134019423,
07/14/2009,DTLK,3.98,,200,200,0.0145655815,
07/14/2009,DTPI,4.53,,1792,1792,0.021919953,
07/14/2009,DTSI,25.21,,1582,1582,0.0075656856,
07/14/2009,DTV,23.79,,94569,94569,0.0065838798,
07/14/2009,DWA,27.17,,4061,4061,,
07/14/2009,DWSN,26.84,,1141,1141,0.0072771106,
07/14/2009,DXCM,5.52,,3631,3631,0.0114605493,
07/14/2009,DXPE,9.96,,923,923,0.0064876187,
07/14/2009,DYAX,3.10,,7992,7992,0.0385097238,
07/14/2009,EAD,8.03,,800,800,,
07/14/2009,EBAY,17.09,,305254,305254,0.0124702368,
07/14/2009,EBIX,36.05,,1340,1340,0.0280499037,
07/14/2009,EBSB,8.12,,601,601,0.0283223374,
07/14/2009,EBTC,12.42,,311,311,0.622,
07/14/2009,ECF,5.35,,200,200,,
07/14/2009,ECLP,16.93,,5837,5837,0.0075773901,
07/14/2009,ECOL,17.41,,1834,1834,0.0144718257,
07/14/2009,ECPG,12.61,,830,830,0.0083466578,
07/14/2009,EEFT,18.45,,7050,7050,0.0129379638,
07/14/2009,EFII,11.38,,3865,3865,0.009692158,
07/14/2009,EFSC,9.46,,701,701,0.0187152926,
07/14/2009,EFUT,7.90,,400,400,0.036251586,
07/14/2009,EGBN,9.12,,609,609,0.1274591879,
07/14/2009,EGLE,4.88,,5500,5500,0.0030058373,
07/14/2009,EGOV,7.00,,3208,3208,0.0153597916,
07/14/2009,EHTH,16.91,,5472,5472,0.0372526193,
07/14/2009,EIHI,9.98,,732,732,0.0291285316,
07/14/2009,ELGX,3.88,,3644,3644,0.0191238907,
07/14/2009,ELMG,20.68,,2892,2892,0.0275211024,
07/14/2009,ELNK,8.15,,18740,18740,0.0141329112,
07/14/2009,ELON,7.42,,3553,3553,0.0205979373,
07/14/2009,ELOS,7.52,,700,700,0.0043105572,
07/14/2009,ELOY,8.38,,402,402,0.0125050549,
07/14/2009,ELRC,9.26,,1386,1386,0.0180909245,
07/14/2009,EMCI,20.97,,414,414,0.0154466085,
07/14/2009,EMKR,1.08,,4643,4643,0.0048043443,
07/14/2009,ENDO,1.35,,184,184,0.0016979965,
07/14/2009,ENDP,17.64,,9632,9632,0.0076103729,
07/14/2009,ENER,12.44,,13505,13505,0.0066237606,
07/14/2009,ENG,4.22,,1145,1145,0.0074701358,
07/14/2009,ENOC,18.37,,1051,1051,0.0055455303,
07/14/2009,ENSG,14.81,,677,677,0.0085747217,
07/14/2009,ENTG,2.75,,7360,7360,0.0106173192,
07/14/2009,ENTR,2.62,,3254,3254,0.0193436016,
07/14/2009,ENTU,1.97,,3860,3860,0.0227081532,
07/14/2009,ENZN,7.96,,6296,6296,0.0148078809,
07/14/2009,EOE,7.08,,150,150,,
07/14/2009,EPAX,12.19,,1259,1259,0.0119158038,
07/14/2009,EPAY,8.57,,1546,1546,0.0102567505,
07/14/2009,EPEXP,1.51,,100,100,0.015060241,
07/14/2009,EPHC,8.88,,883,883,0.0222664918,
07/14/2009,EPIC,5.50,,4090,4090,0.0080564781,
07/14/2009,EPIQ,14.90,,3190,3190,0.0080955632,
07/14/2009,EQIX,70.55,,10541,10541,0.0109630329,
07/14/2009,ERC,12.35,,400,400,,
07/14/2009,ERES,5.63,,10124,10124,0.0251039593,
07/14/2009,ERIC,9.39,,11438,11438,0.0011090173,
07/14/2009,ERIE,35.99,,5512,5512,0.0388582225,
07/14/2009,ERII,7.02,,2068,2068,0.0087870251,
07/14/2009,EROC,2.84,,709,709,0.0074298409,
07/14/2009,ERTS,21.17,,137743,137743,0.0120279625,
07/14/2009,ESBF,14.21,,816,816,0.0330310881,
07/14/2009,ESEA,4.59,,100,100,0.0004956629,
07/14/2009,ESGR,56.88,,496,496,0.0162521708,
07/14/2009,ESIO,11.26,,2864,2864,0.0166494204,
07/14/2009,ESLR,2.00,,19013,19013,0.0069270981,
07/14/2009,ESRX,65.31,,46930,46930,0.0145261917,
07/14/2009,ESSA,13.72,,1259,1259,0.0237157873,
07/14/2009,ETF,14.57,,100,100,,
07/14/2009,ETFC,1.20,,504569,504569,0.0312376471,
07/14/2009,ETRM,3.05,,938,938,1.1725,
07/14/2009,EVEP,18.00,,963,963,0.0117254563,
07/14/2009,EVJ,11.20,,100,100,,
07/14/2009,EVOL,2.61,,100,100,0.0066225166,
07/14/2009,EVVV,10.19,,5737,5737,0.0114603164,
07/14/2009,EWBC,6.12,,14653,14653,0.01475946,
07/14/2009,EXAC,14.97,,501,501,0.0116462876,
07/14/2009,EXAR,7.20,,3661,3661,0.0157018661,
07/14/2009,EXAS,2.74,,100,100,0.0010872638,
07/14/2009,EXBD,17.00,,11039,11039,0.0335193665,
07/14/2009,EXEL,4.49,,8127,8127,0.0047827968,
07/14/2009,EXLP,13.64,,180,180,0.0015635179,
07/14/2009,EXLS,11.33,,920,920,0.006326111,
07/14/2009,EXPD,29.93,,112401,112401,0.0410164247,
07/14/2009,EXPE,15.82,,50093,50093,0.0118209608,
07/14/2009,EXPO,26.62,,1082,1082,0.0107683121,
07/14/2009,EXTR,2.04,,7788,7788,0.007711143,
07/14/2009,EXXI,0.45,,1600,1600,0.0024778772,
07/14/2009,EZCH,12.26,,214,214,0.0011942831,
07/14/2009,EZPW,10.29,,8227,8227,0.0132312829,
07/14/2009,FACT,7.72,,6224,6224,,
07/14/2009,FADV,14.99,,677,677,0.0067729124,
07/14/2009,FALC,4.78,,2119,2119,0.0094297641,
07/14/2009,FARM,20.52,,412,412,0.014910249,
07/14/2009,FARO,14.82,,4091,4091,0.0419908443,
07/14/2009,FAS,43.57,,455,455,,
07/14/2009,FAST,31.65,,62877,62877,0.0175325153,
07/14/2009,FAZ,46.84,,610,610,,
07/14/2009,FBCM,5.06,,1055,1055,0.0126362439,
07/14/2009,FBNC,17.35,,1157,1157,0.0167508795,
07/14/2009,FCAL,6.13,,347,347,0.0460395383,
07/14/2009,FCBC,12.39,,700,700,0.0218702159,
07/14/2009,FCEL,3.63,,4722,4722,0.0048558565,
07/14/2009,FCFS,16.80,,2187,2187,0.0123274467,
07/14/2009,FCNCA,133.09,,312,312,0.0360693642,
07/14/2009,FCSX,3.99,,3217,3217,0.0064257878,
07/14/2009,FDEF,12.64,,500,500,0.0109921516,
07/14/2009,FDML,9.67,,1179,1179,0.0053084674,
07/14/2009,FEED,5.30,,13368,13368,0.0182755523,
07/14/2009,FEIC,23.98,,3278,3278,0.0081302023,
07/14/2009,FELE,23.59,,1541,1541,0.0078652546,
07/14/2009,FFBC,7.97,,7438,7438,0.0297213276,
07/14/2009,FFCH,9.75,,1496,1496,0.0285741572,
07/14/2009,FFIC,8.49,,1716,1716,0.0185889311,
07/14/2009,FFIN,50.32,,4422,4422,0.038501724,
07/14/2009,FFIV,34.29,,4698,4698,0.0018479911,
07/14/2009,FFKT,23.14,,395,395,0.021470892,
07/14/2009,FFKY,16.86,,248,248,0.4006462036,
07/14/2009,FFNW,8.06,,1126,1126,0.016343237,
07/14/2009,FGXI,9.67,,1099,1099,0.0104137055,
07/14/2009,FHCO,6.06,,979,979,,
07/14/2009,FINL,7.60,,5455,5455,0.0125110088,
07/14/2009,FIRE,12.58,,2465,2465,0.0416413271,
07/14/2009,FISI,13.11,,782,782,0.0266621207,
07/14/2009,FISV,46.80,,58284,58284,0.0243384432,
07/14/2009,FITB,7.06,,157436,157436,0.0191409223,
07/14/2009,FIZZ,10.52,,839,839,0.0195325232,
07/14/2009,FLDR,6.32,,1015,1015,0.0138472033,
07/14/2009,FLEX,4.57,,72525,72525,0.004219099,
07/14/2009,FLIC,24.92,,333,333,0.0267426919,
07/14/2009,FLIR,21.83,,129518,129518,0.0825371254,
07/14/2009,FLOW,2.00,,2422,2422,0.0042139621,
07/14/2009,FLWS,1.86,,1616,1616,0.0050207385,
07/14/2009,FMBI,7.17,,25675,25675,0.0344578608,
07/14/2009,FMCN,7.73,,1175,1175,0.0002078762,
07/14/2009,FMER,17.42,,26975,26975,0.0254080835,
07/14/2009,FNFG,11.25,,17121,17121,0.0095684822,
07/14/2009,FNLC,19.01,,536,536,0.0260548318,
07/14/2009,FNSR,0.49,,2400,2400,0.0010145049,
07/14/2009,FOLD,10.40,,1184,1184,0.0924855491,
07/14/2009,FORD,1.50,,200,200,0.0007176613,
07/14/2009,FORM,20.79,,7492,7492,0.0252692361,
07/14/2009,FORR,23.39,,1392,1392,0.0090928094,
07/14/2009,FOSL,22.89,,4934,4934,0.0041659103,
07/14/2009,FPFC,2.35,,400,400,0.0057950858,
07/14/2009,FPIC,30.81,,545,545,0.0100720754,
07/14/2009,FRBK,7.13,,542,542,0.0388892875,
07/14/2009,FRD,5.47,,600,600,,
07/14/2009,FRED,12.71,,5488,5488,0.0108579094,
07/14/2009,FRME,8.01,,2373,2373,0.019317969,
07/14/2009,FRPT,4.67,,27408,27408,0.029338597,
07/14/2009,FSBK,11.84,,502,502,0.0238457154,
07/14/2009,FSCI,12.14,,658,658,0.0204252677,
07/14/2009,FSIN,7.36,,1110,1110,0.007068848,
07/14/2009,FSLR,141.54,,13361,13361,0.002524908,
07/14/2009,FSTR,30.45,,2748,2748,0.0212279455,
07/14/2009,FSYS,19.69,,1464,1464,0.0026718059,
07/14/2009,FTBK,0.83,,1000,1000,0.002387786,
07/14/2009,FTEK,8.22,,6384,6384,0.0307862947,
07/14/2009,FTGX,11.36,,362,362,0.0356650246,
07/14/2009,FTWR,0.44,,400,400,0.0003637868,
07/14/2009,FUJI,31.13,,384,384,0.0013398091,
07/14/2009,FULT,5.51,,48745,48745,0.0307328277,
07/14/2009,FUQI,18.04,,5462,5462,0.0507027087,
07/14/2009,FWLT,19.75,,23970,23970,0.0084547074,
07/14/2009,FWRD,20.56,,3486,3486,0.0164307631,
07/14/2009,FXCB,9.95,,332,332,0.0255522204,
07/14/2009,FXEN,3.51,,2617,2617,0.0123095593,
07/14/2009,GABC,15.39,,683,683,0.0985001442,
07/14/2009,GAF,51.04,,151,151,,
07/14/2009,GAIA,5.07,,994,994,0.0109074948,
07/14/2009,GAIN,4.32,,1361,1361,0.0219966706,
07/14/2009,GBCI,13.89,,32912,32912,0.099914087,
07/14/2009,GBNK,1.68,,3753,3753,0.0171537484,
07/14/2009,GBR,6.60,,100,100,,
07/14/2009,GCOM,6.93,,1285,1285,0.0081007136,
07/14/2009,GENZ,53.81,,90128,90128,0.0185772055,
07/14/2009,GEOI,9.65,,446,446,0.006693782,
07/14/2009,GEOY,23.09,,1289,1289,0.0043417631,
07/14/2009,GERN,7.49,,6807,6807,0.0094109677,
07/14/2009,GETI,22.12,,536,536,0.0101059618,
07/14/2009,GFIG,5.98,,6342,6342,0.0053331988,
07/14/2009,GHDX,16.47,,986,986,0.0095803496,
07/14/2009,GIB,8.73,,100,100,,
07/14/2009,GIFI,14.49,,1154,1154,0.0079713198,
07/14/2009,GIII,9.99,,1618,1618,0.0078062054,
07/14/2009,GILD,44.91,,149372,149372,0.0105456096,
07/14/2009,GKSR,21.40,,2110,2110,0.0085780378,
07/14/2009,GLAD,7.84,,1680,1680,0.0128825465,
07/14/2009,GLBC,8.52,,2199,2199,0.009214099,
07/14/2009,GLBL,5.46,,19937,19937,0.0162690991,
07/14/2009,GLDD,4.52,,2467,2467,0.0124299023,
07/14/2009,GLNG,8.75,,7084,7084,0.020529049,
07/14/2009,GLQ,11.60,,200,200,,
07/14/2009,GLRE,17.18,,1891,1891,0.0124704889,
07/14/2009,GMCR,58.55,,8055,8055,0.0134145813,
07/14/2009,GMF,59.23,,106,106,,
07/14/2009,GMO,1.99,,150,150,,
07/14/2009,GMTC,1.81,,100,100,0.015503876,
07/14/2009,GMTN,6.05,,517,517,0.0089353612,
07/14/2009,GMXR,10.29,,3403,3403,0.0098172146,
07/14/2009,GNCMA,6.66,,3092,3092,0.0127986489,
07/14/2009,GNTX,11.06,,5010,5010,0.0030790107,
07/14/2009,GOLD,61.22,,4847,4847,0.0032298605,
07/14/2009,GOOD,12.93,,1190,1190,0.0838382415,
07/14/2009,GOOG,424.69,,34278,34278,0.0047608373,
07/14/2009,GPOR,6.27,,2180,2180,0.0112488261,
07/14/2009,GPRE,7.42,,1406,1406,0.1149726061,
07/14/2009,GPRO,39.79,,4178,4178,0.0122647519,
07/14/2009,GRIF,28.48,,201,201,0.0203998782,
07/14/2009,GRMN,22.95,,6768,6768,0.0030380333,
07/14/2009,GRNB,3.85,,3200,3200,0.0451288994,
07/14/2009,GROW,8.23,,800,800,0.008920905,
07/14/2009,GS,149.34,,10000,10000,,
07/14/2009,GSBC,19.66,,2719,2719,0.1337629754,
07/14/2009,GSIC,14.95,,4474,4474,0.0173801569,
07/14/2009,GSIT,4.00,,1507,1507,0.0743903643,
07/14/2009,GSOL,6.96,,1497,1497,0.0087224546,
07/14/2009,GTIV,16.53,,2939,2939,0.0091498059,
07/14/2009,GTLS,17.74,,3503,3503,0.0070204622,
07/14/2009,GTXI,8.12,,1837,1837,0.0117422959,
07/14/2009,GUID,3.80,,100,100,0.0021818817,
07/14/2009,GXDX,27.09,,3141,3141,0.0173961685,
07/14/2009,GYMB,36.29,,4546,4546,0.0050062661,
07/14/2009,HA,6.35,,12173,12173,0.0131319615,
07/14/2009,HAFC,1.39,,800,800,0.0021725021,
07/14/2009,HAIN,15.00,,4338,4338,0.0108373326,
07/14/2009,HALL,7.02,,938,938,0.0285418695,
07/14/2009,HALO,6.45,,5803,5803,0.0216166884,
07/14/2009,HANS,29.13,,4205,4205,0.0022045289,
07/14/2009,HAYN,23.05,,987,987,0.0085287662,
07/14/2009,HBAN,4.09,,239909,239909,0.0466293439,
07/14/2009,HBCP,12.35,,550,550,0.8461538462,
07/14/2009,HBHC,33.30,,4485,4485,0.0143879584,
07/14/2009,HBIO,3.97,,1513,1513,0.0245676707,
07/14/2009,HBOS,8.71,,123,123,1.23,
07/14/2009,HCBK,14.25,,207140,207140,0.0271261036,
07/14/2009,HCCI,13.00,,158,158,0.079,
07/14/2009,HCKT,2.32,,2374,2374,0.0147669876,
07/14/2009,HCSG,18.26,,4279,4279,0.0133698277,
07/14/2009,HDIX,6.23,,712,712,0.0283507207,
07/14/2009,HDY,0.52,,3680,3680,,
07/14/2009,HEAT,6.02,,411,411,,
07/14/2009,HEES,9.65,,6887,6887,0.0343599236,
07/14/2009,HELE,20.42,,5584,5584,0.0315444583,
07/14/2009,HERO,3.45,,18868,18868,0.0066489062,
07/14/2009,HEV,5.28,,4484,4484,,
07/14/2009,HFWA,10.83,,343,343,0.0080705882,
07/14/2009,HGIC,27.76,,1381,1381,0.0146523644,
07/14/2009,HGRD,4.41,,1465,1465,0.0139319474,
07/14/2009,HGSI,2.50,,22522,22522,0.0078443529,
07/14/2009,HIBB,17.40,,7559,7559,0.0175267748,
07/14/2009,HIMX,3.52,,300,300,0.0009206182,
07/14/2009,HITK,12.75,,3039,3039,0.0526370486,
07/14/2009,HITT,35.56,,4932,4932,0.0155567402,
07/14/2009,HIX,7.51,,125,125,,
07/14/2009,HK,20.29,,1000,1000,,
07/14/2009,HLIT,5.65,,15944,15944,0.0169562905,
07/14/2009,HLTH,12.98,,7071,7071,0.0064036268,
07/14/2009,HMIN,14.66,,215,215,0.00221821,
07/14/2009,HMNF,4.90,,500,500,0.0651550691,
07/14/2009,HMPR,6.47,,1136,1136,0.1358851675,
07/14/2009,HMSY,40.50,,7036,7036,0.0253215579,
07/14/2009,HNBC,4.21,,4988,4988,0.0187285043,
07/14/2009,HNSN,2.74,,3508,3508,0.0325121874,
07/14/2009,HNW,15.86,,200,200,,
07/14/2009,HOFT,11.93,,664,664,0.0120589143,
07/14/2009,HOGS,9.53,,3000,3000,0.0317487195,
07/14/2009,HOLX,13.00,,88167,88167,0.0129366298,
07/14/2009,HOMB,20.61,,1618,1618,0.0173090707,
07/14/2009,HOME,11.00,,1300,1300,0.0287597894,
07/14/2009,HOOK,1.94,,200,200,0.0096786682,
07/14/2009,HOTT,7.33,,10847,10847,0.0093720218,
07/14/2009,HPJ,1.51,,100,100,,
07/14/2009,HRBN,15.52,,698,698,0.0109817495,
07/14/2009,HRLY,10.37,,936,936,0.017930691,
07/14/2009,HSIC,45.81,,8406,8406,0.0063094798,
07/14/2009,HSII,16.53,,1951,1951,0.0054604891,
07/14/2009,HSNI,9.20,,5507,5507,0.0051658474,
07/14/2009,HSTX,6.17,,26221,26221,0.0688312779,
07/14/2009,HSWI,0.21,,200,200,0.0020049723,
07/14/2009,HTBK,3.46,,100,100,0.0024417639,
07/14/2009,HTCH,2.10,,1482,1482,0.004502397,
07/14/2009,HTCO,8.19,,1053,1053,0.1255065554,
07/14/2009,HTGC,9.03,,10425,10425,0.0550925608,
07/14/2009,HTLD,14.86,,4786,4786,0.0071303001,
07/14/2009,HTLF,13.24,,821,821,0.029680778,
07/14/2009,HTWR,23.92,,287,287,,
07/14/2009,HUBG,19.53,,7650,7650,0.0127106605,
07/14/2009,HUGH,21.53,,1156,1156,0.025786879,
07/14/2009,HURC,15.59,,395,395,0.0017378603,
07/14/2009,HURN,41.91,,3994,3994,0.0086360491,
07/14/2009,HWAY,12.78,,5937,5937,0.0118888849,
07/14/2009,HWCC,8.79,,1397,1397,0.0114901877,
07/14/2009,HWKN,20.97,,800,800,0.0899381675,
07/14/2009,IAAC,13.84,,307,307,0.010748547,
07/14/2009,IACI,16.21,,32597,32597,0.0159027133,
07/14/2009,IART,25.56,,1957,1957,0.010329139,
07/14/2009,IBAS,1.71,,3175,3175,0.0410753328,
07/14/2009,IBCP,1.21,,600,600,0.004311212,
07/14/2009,IBKC,41.62,,3012,3012,0.0175848299,
07/14/2009,IBKR,15.38,,9055,9055,0.0190909704,
07/14/2009,IBOC,9.76,,7391,7391,0.0198169792,
07/14/2009,ICFI,25.21,,567,567,0.0034521178,
07/14/2009,ICGE,7.36,,2265,2265,0.0084709631,
07/14/2009,ICLR,22.50,,1746,1746,0.002598601,
07/14/2009,ICOC,2.40,,1699,1699,0.0112211875,
07/14/2009,ICOG,0.64,,400,400,0.0011036675,
07/14/2009,ICON,15.56,,6922,6922,0.0163952676,
07/14/2009,ICTG,8.67,,564,564,0.0162489196,
07/14/2009,ICUI,42.59,,1389,1389,0.0142752901,
07/14/2009,ICXT,5.17,,705,705,0.0153930131,
07/14/2009,IDCC,24.89,,4039,4039,0.0059820465,
07/14/2009,IDIX,3.44,,1741,1741,0.0137146008,
07/14/2009,IDRA,5.46,,1333,1333,0.0117395287,
07/14/2009,IDTI,6.00,,65642,65642,0.0333260395,
07/14/2009,IDXX,44.08,,2671,2671,0.0046479253,
07/14/2009,IESC,7.26,,347,347,0.0068017877,
07/14/2009,IF,8.36,,200,200,,
07/14/2009,IFLO,6.50,,1343,1343,0.0115075489,
07/14/2009,IFSIA,5.93,,5773,5773,0.0228005182,
07/14/2009,IGTE,6.28,,1500,1500,0.0097106863,
07/14/2009,III,2.70,,1463,1463,0.0484421046,
07/14/2009,IIIN,8.44,,1230,1230,0.0036385796,
07/14/2009,IILG,10.87,,4084,4084,0.0168799392,
07/14/2009,IIVI,19.78,,2431,2431,0.0096089995,
07/14/2009,ILMN,31.95,,17771,17771,0.0151095829,
07/14/2009,IMGN,8.60,,5476,5476,0.0194993412,
07/14/2009,IMKTA,15.54,,990,990,0.0150742292,
07/14/2009,IMMR,3.69,,1923,1923,0.0108700568,
07/14/2009,IMMU,2.78,,5621,5621,0.0226135303,
07/14/2009,INAP,2.94,,9958,9958,0.0470518194,
07/14/2009,INCY,3.53,,6039,6039,0.0054185345,
07/14/2009,INDB,19.92,,2111,2111,0.0190089417,
07/14/2009,INDM,4.80,,2262,2262,0.0209407604,
07/14/2009,INET,7.15,,1848,1848,0.0285154381,
07/14/2009,INFA,17.38,,8707,8707,0.0083251105,
07/14/2009,INFI,5.96,,1397,1397,1.0746153846,
07/14/2009,INFN,8.82,,6000,6000,0.0090357499,
07/14/2009,INFY,36.07,,20343,20343,0.0044552966,
07/14/2009,ININ,15.54,,1378,1378,0.0192525323,
07/14/2009,INOD,4.78,,1693,1693,0.078868909,
07/14/2009,INSM,0.90,,13864,13864,0.1282053653,
07/14/2009,INSP,6.94,,3447,3447,0.0231437031,
07/14/2009,INSU,16.37,,4911,4911,0.0099522753,
07/14/2009,INTC,16.83,,959997,959997,0.0095350775,
07/14/2009,INTU,27.53,,77430,77430,0.0193573161,
07/14/2009,INWK,4.48,,7520,7520,0.0357645626,
07/14/2009,IOSP,10.83,,1584,1584,0.0138534196,
07/14/2009,IPAR,7.05,,877,877,0.006709253,
07/14/2009,IPAS,1.69,,3205,3205,0.0152606694,
07/14/2009,IPCC,37.76,,1428,1428,0.0055267008,
07/14/2009,IPCM,26.39,,4847,4847,0.053108496,
07/14/2009,IPCR,27.49,,6279,6279,0.0054920017,
07/14/2009,IPCS,14.71,,1300,1300,0.0114438634,
07/14/2009,IPGP,10.04,,1915,1915,0.0068743942,
07/14/2009,IPHS,16.46,,2179,2179,0.0070300527,
07/14/2009,IPSU,11.95,,1006,1006,0.0106618621,
07/14/2009,IPXL,7.24,,4369,4369,,
07/14/2009,IRBT,12.26,,4682,4682,0.0450760092,
07/14/2009,IRET,8.48,,5246,5246,0.0051575024,
07/14/2009,IRIS,10.68,,1122,1122,0.0174548849,
07/14/2009,ISBC,9.79,,4300,4300,0.0085477221,
07/14/2009,ISCA,24.64,,11773,11773,0.0244277945,
07/14/2009,ISIL,12.61,,7944,7944,0.0027899822,
07/14/2009,ISIS,15.35,,13279,13279,0.0157186249,
07/14/2009,ISLE,12.69,,2889,2889,0.0164033091,
07/14/2009,ISLN,4.22,,1593,1593,0.0111312198,
07/14/2009,ISPH,5.23,,3943,3943,0.0187577007,
07/14/2009,ISRG,151.26,,15781,15781,0.0149042712,
07/14/2009,ISSI,2.32,,230,230,0.0041399669,
07/14/2009,ISTA,4.27,,2200,2200,0.0402370327,
07/14/2009,ISYS,8.15,,1777,1777,0.0041029785,
07/14/2009,ITI,1.24,,400,400,,
07/14/2009,ITLN,4.32,,1312,1312,0.267046611,
07/14/2009,ITMN,13.95,,2940,2940,0.0050956915,
07/14/2009,ITRI,52.15,,3471,3471,0.0042692204,
07/14/2009,ITWO,12.47,,1014,1014,0.0055596982,
07/14/2009,IUSA,5.37,,2306,2306,0.0164791973,
07/14/2009,IVAC,8.77,,1652,1652,0.0112213015,
07/14/2009,IXYS,8.79,,2098,2098,0.0145213425,
07/14/2009,JACK,22.92,,6423,6423,0.0080807903,
07/14/2009,JAKK,11.83,,3425,3425,0.0127326733,
07/14/2009,JASO,4.03,,1122,1122,0.0002082172,
07/14/2009,JAVA,9.17,,154230,154230,0.0192285059,
07/14/2009,JBHT,29.62,,31232,31232,0.0103191871,
07/14/2009,JBLU,4.63,,23040,23040,0.0060685717,
07/14/2009,JCOM,21.33,,5182,5182,0.0154133527,
07/14/2009,JCS,10.59,,376,376,0.0957961783,
07/14/2009,JDAS,15.49,,6809,6809,0.0377292625,
07/14/2009,JDSU,5.26,,94075,94075,0.0320573219,
07/14/2009,JJSF,38.27,,1891,1891,0.0207019618,
07/14/2009,JKHY,20.33,,14271,14271,0.0182609897,
07/14/2009,JMBA,1.15,,1000,1000,0.0044767968,
07/14/2009,JNPR,23.42,,113289,113289,0.0104048695,
07/14/2009,JOSB,34.76,,1571,1571,0.0032152169,
07/14/2009,JOYG,32.59,,21428,21428,0.0056732151,
07/14/2009,JRCC,15.37,,4192,4192,0.0030295672,
07/14/2009,KALU,31.33,,2270,2270,0.0065475229,
07/14/2009,KAMN,16.88,,2477,2477,0.0125784567,
07/14/2009,KBALB,6.43,,1975,1975,0.0162107147,
07/14/2009,KCAP,5.84,,1127,1127,0.0103775322,
07/14/2009,KCLI,26.89,,260,260,0.0060736311,
07/14/2009,KELYA,10.79,,3874,3874,0.0188231864,
07/14/2009,KERX,0.90,,1000,1000,0.0009396589,
07/14/2009,KEYN,7.90,,758,758,0.0156760558,
07/14/2009,KFED,8.68,,246,246,0.0273576512,
07/14/2009,KFFB,12.75,,249,249,,
07/14/2009,KFRC,8.26,,2528,2528,0.0199359652,
07/14/2009,KIRK,11.54,,2703,2703,0.0028200107,
07/14/2009,KLAC,27.86,,92847,92847,0.0208777952,
07/14/2009,KLIC,3.15,,8378,8378,0.0213387533,
07/14/2009,KNDL,11.10,,1175,1175,0.0047254228,
07/14/2009,KNOL,7.60,,2320,2320,0.013479908,
07/14/2009,KNOT,7.35,,4553,4553,0.0211324153,
07/14/2009,KNSY,25.57,,830,830,0.0079716478,
07/14/2009,KNXA,10.28,,2138,2138,0.0105307747,
07/14/2009,KONG,10.40,,361,361,0.0173091676,
07/14/2009,KOPN,3.74,,4960,4960,0.022871688,
07/14/2009,KPPC,4.76,,1267,1267,0.0134854661,
07/14/2009,KRNY,11.30,,1122,1122,0.0185503604,
07/14/2009,KSWS,9.63,,2599,2599,0.0110456616,
07/14/2009,KTII,83.15,,153,153,0.0107875626,
07/14/2009,KTOS,0.70,,300,300,0.0033734777,
07/14/2009,KVHI,6.98,,8873,8873,0.3597551087,
07/14/2009,LABL,12.58,,638,638,0.009655402,
07/14/2009,LACO,3.34,,1154,1154,0.0163971696,
07/14/2009,LAMR,15.64,,4488,4488,0.0030936469,
07/14/2009,LANC,43.84,,1820,1820,0.0115069706,
07/14/2009,LAWS,12.51,,417,417,0.0170058317,
07/14/2009,LAYN,18.56,,10432,10432,0.0428286975,
07/14/2009,LBAI,9.02,,1602,1602,0.0191922943,
07/14/2009,LBTYA,15.72,,10751,10751,0.0030053249,
07/14/2009,LBTYK,15.66,,5032,5032,0.0076471026,
07/14/2009,LCAPA,12.15,,2239,2239,0.0023036378,
07/14/2009,LCAV,3.55,,1380,1380,0.0207771873,
07/14/2009,LDSH,11.55,,2785,2785,0.0201455398,
07/14/2009,LEAP,28.96,,4214,4214,0.0039850848,
07/14/2009,LECO,34.74,,3693,3693,0.0134960805,
07/14/2009,LEGC,11.86,,302,302,0.0907451923,
07/14/2009,LFUS,23.84,,2850,2850,0.0173326035,
07/14/2009,LGCY,12.27,,100,100,0.0007417957,
07/14/2009,LGND,2.86,,8887,8887,0.0300878904,
07/14/2009,LHCG,23.39,,1785,1785,0.0077657316,
07/14/2009,LIFE,40.02,,28216,28216,0.0078811152,
07/14/2009,LIHR,22.74,,8400,8400,0.0118269048,
07/14/2009,LIME,5.95,,200,200,0.1292824822,
07/14/2009,LINC,19.01,,2634,2634,0.1049653304,
07/14/2009,LINE,19.63,,8399,8399,0.0160770412,
07/14/2009,LINTA,5.41,,35588,35588,0.0057735977,
07/14/2009,LIOX,2.13,,3732,3732,0.082103179,
07/14/2009,LKFN,18.61,,765,765,0.0067740479,
07/14/2009,LKQX,15.92,,10275,10275,0.0122585133,
07/14/2009,LLNW,4.31,,2026,2026,0.0105431875,
07/14/2009,LLTC,23.77,,58436,58436,0.0088380336,
07/14/2009,LMDIA,25.56,,32273,32273,0.0038438281,
07/14/2009,LMIA,9.39,,629,629,0.005335618,
07/14/2009,LMNX,16.02,,2789,2789,0.0076098019,
07/14/2009,LNCE,24.09,,2940,2940,0.0071182132,
07/14/2009,LNCR,22.76,,5263,5263,0.0068946996,
07/14/2009,LNDC,6.87,,1618,1618,0.0062319695,
07/14/2009,LNET,3.30,,1447,1447,0.0157661339,
07/14/2009,LOCM,3.32,,100,100,0.0058709564,
07/14/2009,LOGI,13.75,,14722,14722,0.0193212496,
07/14/2009,LOGM,19.41,,453,453,,
07/14/2009,LOJN,3.60,,264,264,0.0083515232,
07/14/2009,LOOP,7.78,,3211,3211,0.0130742639,
07/14/2009,LOPE,16.20,,2383,2383,0.0217133797,
07/14/2009,LORL,23.35,,1120,1120,0.0242298373,
07/14/2009,LPHI,15.33,,712,712,0.0061963153,
07/14/2009,LPNT,25.35,,2427,2427,0.0025800183,
07/14/2009,LPSN,4.48,,5491,5491,0.1088490663,
07/14/2009,LQDT,9.94,,1458,1458,0.0119187758,
07/14/2009,LRCX,28.33,,23208,23208,0.0056512583,
07/14/2009,LSCC,1.86,,12207,12207,0.0202843835,
07/14/2009,LSTR,34.94,,4849,4849,0.0099884028,
07/14/2009,LTRE,10.41,,488,488,0.0121692726,
07/14/2009,LTXC,0.47,,500,500,0.0008023467,
07/14/2009,LUFK,40.75,,1673,1673,0.0052839533,
07/14/2009,LULU,12.87,,4150,4150,0.0053350131,
07/14/2009,LVLT,1.45,,159306,159306,0.0139077656,
07/14/2009,LWAY,14.69,,499,499,0.0161352907,
07/14/2009,LWSN,5.35,,17963,17963,0.0110163187,
07/14/2009,LXRX,1.35,,5084,5084,0.0134540066,
07/14/2009,LYTS,5.31,,1159,1159,0.0110222442,
07/14/2009,MAIN,14.00,,436,436,0.0431768667,
07/14/2009,MAKO,8.95,,1145,1145,0.0226038891,
07/14/2009,MALL,7.05,,637,637,0.0066613682,
07/14/2009,MANH,15.76,,2255,2255,0.0104976002,
07/14/2009,MANT,41.70,,2258,2258,0.0051041975,
07/14/2009,MAPP,10.43,,470,470,0.0144202743,
07/14/2009,MASI,22.68,,18631,18631,0.0145586535,
07/14/2009,MATK,21.19,,4642,4642,0.0119440621,
07/14/2009,MATW,29.19,,3341,3341,0.0097338558,
07/14/2009,MAXY,6.97,,2552,2552,0.0046622942,
07/14/2009,MBFI,11.48,,6776,6776,0.0286377218,
07/14/2009,MBLX,7.26,,1196,1196,0.0064753655,
07/14/2009,MBRK,1.08,,2358,2358,0.0104249101,
07/14/2009,MBVT,22.89,,294,294,0.0464895636,
07/14/2009,MCCC,4.23,,3145,3145,0.0158411952,
07/14/2009,MCF,41.46,,200,200,,
07/14/2009,MCGC,2.45,,4031,4031,0.0097905393,
07/14/2009,MCHP,23.65,,51206,51206,0.0117326148,
07/14/2009,MCHX,3.88,,1729,1729,0.0082134646,
07/14/2009,MCRI,8.28,,3598,3598,0.0354849845,
07/14/2009,MCRL,7.30,,5676,5676,0.0107865476,
07/14/2009,MCRS,24.12,,7360,7360,0.0069929937,
07/14/2009,MDAS,18.83,,3581,3581,0.002883975,
07/14/2009,MDCA,6.16,,100,100,0.0625,
07/14/2009,MDCI,10.91,,871,871,0.0155408058,
07/14/2009,MDCO,7.74,,6995,6995,0.0191519479,
07/14/2009,MDRX,15.10,,6713,6713,0.0042174318,
07/14/2009,MDSO,17.08,,1900,1900,,
07/14/2009,MDTH,12.73,,1398,1398,0.0114459755,
07/14/2009,MDVN,23.23,,2355,2355,0.0145309376,
07/14/2009,MEAS,6.95,,892,892,0.0076253655,
07/14/2009,MEDQ,5.08,,565,565,0.0161641014,
07/14/2009,MEDX,8.53,,11827,11827,0.0078689812,
07/14/2009,MELA,7.14,,1087,1087,0.0215773071,
07/14/2009,MELI,26.74,,4425,4425,0.0061299975,
07/14/2009,MEMS,4.25,,955,955,0.0049176867,
07/14/2009,MEND,8.73,,1071,1071,0.0116268971,
07/14/2009,MENT,6.25,,11728,11728,0.0144545645,
07/14/2009,MEOH,12.74,,524,524,0.0008702815,
07/14/2009,MERC,0.50,,100,100,0.0009432805,
07/14/2009,METR,18.00,,287,287,,
07/14/2009,MFLX,20.02,,1981,1981,0.0245787737,
07/14/2009,MGAM,5.07,,1871,1871,0.0515341817,
07/14/2009,MGEE,34.42,,1648,1648,0.0120158656,
07/14/2009,MGLN,31.98,,4127,4127,0.0069697768,
07/14/2009,MGN,1.64,,800,800,,
07/14/2009,MGRC,17.29,,2542,2542,0.0235614712,
07/14/2009,MHGC,3.44,,1979,1979,0.0037060064,
07/14/2009,MHLD,7.05,,9001,9001,0.0133530937,
07/14/2009,MICC,56.60,,2056,2056,0.0016734195,
07/14/2009,MIDD,39.94,,1179,1179,0.0085897884,
07/14/2009,MIG,7.19,,100,100,,
07/14/2009,MIGP,17.33,,344,344,0.1376,
07/14/2009,MINI,14.65,,3503,3503,0.0163103957,
07/14/2009,MIPI,5.13,,1045,1045,0.0264510087,
07/14/2009,MIPS,3.09,,2775,2775,0.0017956063,
07/14/2009,MITI,4.84,,3334,3334,0.0248635265,
07/14/2009,MKSI,16.18,,22238,22238,0.0577936135,
07/14/2009,MKTX,9.29,,1956,1956,0.0140409312,
07/14/2009,MLHR,14.67,,5455,5455,0.0071134885,
07/14/2009,MLNK,6.98,,4175,4175,0.0105209045,
07/14/2009,MMSI,17.79,,3278,3278,0.0091016621,
07/14/2009,MNKD,7.35,,6585,6585,0.0171310834,
07/14/2009,MNRO,26.52,,1612,1612,0.0109383058,
07/14/2009,MNRTA,6.01,,1353,1353,0.01677245,
07/14/2009,MNTA,11.51,,4323,4323,0.0127023398,
07/14/2009,MOLX,15.30,,32281,32281,0.0186743259,
07/14/2009,MOLXA,14.34,,1080,1080,0.0025149793,
07/14/2009,MORN,40.04,,1743,1743,0.0058354035,
07/14/2009,MOSY,1.59,,200,200,0.0080379391,
07/14/2009,MOVE,2.09,,9511,9511,0.0109014218,
07/14/2009,MPAA,4.19,,200,200,0.0377358491,
07/14/2009,MPEL,4.41,,382,382,0.0004503942,
07/14/2009,MPWR,23.60,,2573,2573,0.0018546791,
07/14/2009,MRCY,11.23,,2178,2178,0.0155878732,
07/14/2009,MRGE,3.89,,1600,1600,0.0103181206,
07/14/2009,MRTN,20.65,,1665,1665,0.0085499492,
07/14/2009,MRVL,12.23,,182805,182805,0.0079340413,
07/14/2009,MSCC,14.41,,9512,9512,0.0047940842,
07/14/2009,MSCS,7.48,,24936,24936,0.081820956,
07/14/2009,MSEX,14.24,,1237,1237,0.0275636169,
07/14/2009,MSFG,6.95,,1441,1441,0.0190651337,
07/14/2009,MSFT,23.11,,1065232,1065232,0.010902255,
07/14/2009,MSHL,0.67,,100,100,0.0009339684,
07/14/2009,MSSR,7.13,,1014,1014,0.0194078129,
07/14/2009,MSTR,52.78,,667,667,0.0040356248,
07/14/2009,MSW,6.71,,1197,1197,0.0137354126,
07/14/2009,MTEX,3.31,,1068,1068,0.0181533859,
07/14/2009,MTRX,10.13,,2475,2475,0.0084323639,
07/14/2009,MTSC,21.16,,2272,2272,0.0180238785,
07/14/2009,MTXX,5.90,,4960,4960,0.0538439827,
07/14/2009,MVF,8.05,,300,300,,
07/14/2009,MVIS,2.85,,4199,4199,0.0130894377,
07/14/2009,MVSN,22.86,,3924,3924,0.0031686916,
07/14/2009,MWIV,31.09,,2662,2662,0.0257372136,
07/14/2009,MXGL,18.40,,6895,6895,0.0114810085,
07/14/2009,MXIM,16.43,,119576,119576,0.0407657731,
07/14/2009,MXWL,13.08,,1532,1532,0.0124953102,
07/14/2009,MYGN,25.42,,9321,9321,0.0113024973,
07/14/2009,MYL,12.35,,246765,246765,,
07/14/2009,MYRG,18.20,,1263,1263,0.0321849039,
07/14/2009,MYRX,4.19,,26241,26241,,
07/14/2009,NABI,2.31,,3202,3202,0.0169170052,
07/14/2009,NAFC,26.28,,1760,1760,0.0058761861,
07/14/2009,NANO,2.60,,200,200,0.0085023169,
07/14/2009,NARA,5.38,,2331,2331,0.0175793181,
07/14/2009,NASB,24.55,,212,212,0.0210442724,
07/14/2009,NATI,22.16,,3942,3942,0.0094767133,
07/14/2009,NATL,15.68,,377,377,0.0037313433,
07/14/2009,NAVG,46.48,,1606,1606,0.0124780508,
07/14/2009,NBIX,3.06,,2417,2417,0.0198941503,
07/14/2009,NBTB,21.22,,4400,4400,0.0238853935,
07/14/2009,NCIT,29.68,,744,744,0.008267126,
07/14/2009,NCMI,13.14,,3265,3265,0.0069702255,
07/14/2009,NCTY,8.34,,100,100,0.0004702828,
07/14/2009,NDAQ,19.52,,36630,36630,0.0112599666,
07/14/2009,NDSN,38.98,,3394,3394,0.0098988243,
07/14/2009,NECB,7.73,,362,362,0.1248275862,
07/14/2009,NEOG,28.87,,3299,3299,0.0416761414,
07/14/2009,NETC,10.17,,3082,3082,0.0038392928,
07/14/2009,NETL,35.16,,1245,1245,0.0016480702,
07/14/2009,NEWP,5.91,,3930,3930,0.0175387705,
07/14/2009,NEWS,1.70,,1706,1706,0.0171183737,
07/14/2009,NFBK,11.84,,1609,1609,0.0282920997,
07/14/2009,NFLX,43.30,,11072,11072,0.0078948569,
07/14/2009,NGA,5.93,,783,783,0.0124898311,
07/14/2009,NGLS,14.74,,248,248,0.0004379637,
07/14/2009,NGPC,5.81,,4895,4895,0.0324335427,
07/14/2009,NGSX,6.44,,637,637,0.1393263342,
07/14/2009,NHC,37.78,,100,100,,
07/14/2009,NHWK,3.84,,1303,1303,0.0019951614,
07/14/2009,NICE,22.50,,805,805,0.0037177812,
07/14/2009,NIHD,19.26,,49886,49886,0.021407048,
07/14/2009,NILE,42.45,,4733,4733,0.0329389658,
07/14/2009,NITE,17.28,,13720,13720,0.0092103099,
07/14/2009,NKL,12.60,,200,200,,
07/14/2009,NKSH,24.82,,528,528,0.44,
07/14/2009,NKTR,5.95,,6966,6966,0.0098469524,
07/14/2009,NLCI,11.38,,251,251,0.0248662572,
07/14/2009,NNB,12.98,,200,200,,
07/14/2009,NOOF,2.26,,148,148,0.0036161947,
07/14/2009,NOVA,4.03,,1231,1231,0.0250559739,
07/14/2009,NOVL,4.25,,44323,44323,0.0116177759,
07/14/2009,NOVN,16.48,,5696,5696,0.0224348244,
07/14/2009,NOX,4.35,,200,200,,
07/14/2009,NPBC,4.29,,17057,17057,0.0315033781,
07/14/2009,NPD,5.02,,100,100,,
07/14/2009,NPSP,4.81,,3274,3274,0.0064946014,
07/14/2009,NRCI,25.92,,102,102,0.0185555758,
07/14/2009,NRGY,26.85,,794,794,0.0047204866,
07/14/2009,NRIM,13.75,,390,390,0.0106412005,
07/14/2009,NSANY,11.91,,705,705,0.0011252759,
07/14/2009,NSIT,8.44,,5539,5539,0.0105314994,
07/14/2009,NSPH,4.33,,634,634,0.0060642582,
07/14/2009,NSTC,4.34,,2586,2586,0.0137789192,
07/14/2009,NSU,1.50,,1202,1202,,
07/14/2009,NTAP,20.05,,92776,92776,0.0068967009,
07/14/2009,NTCT,9.52,,3365,3365,0.0202686423,
07/14/2009,NTES,35.45,,10392,10392,0.0113146288,
07/14/2009,NTGR,14.60,,7965,7965,0.0260993512,
07/14/2009,NTLS,16.62,,2374,2374,0.0118618153,
07/14/2009,NTRI,14.13,,2876,2876,0.0132352197,
07/14/2009,NTRS,57.05,,55523,55523,0.0200384362,
07/14/2009,NUAN,11.90,,13620,13620,0.0042860528,
07/14/2009,NUJ,12.00,,100,100,,
07/14/2009,NUTR,10.28,,704,704,0.0314440127,
07/14/2009,NUVA,39.34,,3402,3402,0.0058274379,
07/14/2009,NVAX,2.71,,3852,3852,0.0165524354,
07/14/2009,NVDA,10.71,,119796,119796,0.0091799298,
07/14/2009,NVEC,44.53,,577,577,0.0132668077,
07/14/2009,NVLS,18.90,,86203,86203,0.0460977377,
07/14/2009,NVTL,8.88,,3470,3470,0.004012804,
07/14/2009,NWFL,31.50,,125,125,0.3351206434,
07/14/2009,NWK,4.35,,2198,2198,,
07/14/2009,NWLI,117.74,,138,138,0.0206834532,
07/14/2009,NWPX,38.30,,583,583,0.0064335294,
07/14/2009,NWS,10.03,,69814,69814,,
07/14/2009,NWSA,8.54,,284705,284705,,
07/14/2009,NWSB,19.84,,1437,1437,0.0137659501,
07/14/2009,NXK,11.73,,100,100,,
07/14/2009,NXTM,5.07,,4273,4273,0.0175738757,
07/14/2009,NYMT,5.27,,200,200,,
07/14/2009,NZF,12.51,,200,200,,
07/14/2009,OCFC,11.10,,555,555,0.0146662439,
07/14/2009,OCLR,0.56,,400,400,,
07/14/2009,OCNF,1.38,,1100,1100,0.0010540184,
07/14/2009,ODFL,32.34,,19685,19685,0.0295420642,
07/14/2009,ODSY,9.86,,4358,4358,0.0273151775,
07/14/2009,OESX,3.61,,1107,1107,0.0017152845,
07/14/2009,OFIX,22.60,,1958,1958,0.0140929212,
07/14/2009,OFLX,15.47,,170,170,0.0272698107,
07/14/2009,OGXI,20.16,,600,600,0.004223627,
07/14/2009,OIIM,4.85,,1000,1000,0.0036127559,
07/14/2009,OKSB,8.88,,1584,1584,0.0205040581,
07/14/2009,OMCL,10.25,,2813,2813,0.0030554068,
07/14/2009,OMEX,1.56,,3278,3278,0.0164222698,
07/14/2009,OMPI,7.06,,1074,1074,0.0163607282,
07/14/2009,OMTR,12.07,,6028,6028,0.0054995584,
07/14/2009,ONAV,3.81,,100,100,0.0039528817,
07/14/2009,ONNN,7.14,,28078,28078,0.0044562758,
07/14/2009,ONXX,27.42,,4371,4371,0.0045512429,
07/14/2009,OPEN,29.66,,428,428,,
07/14/2009,OPLK,12.40,,10160,10160,0.0934081089,
07/14/2009,OPNT,8.52,,808,808,0.0123710077,
07/14/2009,OPOF,16.73,,123,123,0.328,
07/14/2009,OPTR,13.81,,2028,2028,0.0057299142,
07/14/2009,OPTT,5.27,,1000,1000,0.0138157804,
07/14/2009,OPTV,1.28,,5222,5222,0.014218345,
07/14/2009,OPWV,2.38,,6517,6517,0.0191844052,
07/14/2009,OPXT,1.77,,2414,2414,0.028475376,
07/14/2009,ORBC,1.78,,33542,33542,0.3214559534,
07/14/2009,ORCC,6.50,,1566,1566,0.0171844309,
07/14/2009,ORCL,20.63,,533684,533684,0.0093109763,
07/14/2009,OREX,5.37,,1600,1600,0.0072548211,
07/14/2009,ORIT,13.57,,623,623,0.0094942014,
07/14/2009,ORLY,40.14,,24042,24042,0.0133819437,
07/14/2009,ORRF,36.58,,315,315,,
07/14/2009,OSBC,5.68,,660,660,0.0074405601,
07/14/2009,OSCI,0.06,,1600,1600,0.0088653956,
07/14/2009,OSIP,30.38,,23959,23959,0.0254621585,
07/14/2009,OSIR,11.09,,1047,1047,0.0060199054,
07/14/2009,OSIS,19.18,,1609,1609,0.0147833038,
07/14/2009,OSTE,4.31,,666,666,0.0189635535,
07/14/2009,OSTK,11.34,,1073,1073,0.0084176669,
07/14/2009,OSUR,2.56,,2829,2829,0.0166202545,
07/14/2009,OTEX,36.54,,127,127,0.0003960013,
07/14/2009,OTTR,22.23,,3128,3128,0.0104576562,
07/14/2009,OUTD,5.92,,896,896,0.0170225701,
07/14/2009,OVBC,29.75,,245,245,2.45,
07/14/2009,OVTI,11.73,,6142,6142,0.0067489536,
07/14/2009,OXGN,1.98,,1679,1679,0.0557807309,
07/14/2009,OXPS,15.00,,8062,8062,0.0080436444,
07/14/2009,OYOG,23.87,,300,300,0.0056106228,
07/14/2009,OZRK,23.03,,3384,3384,0.0405041474,
07/14/2009,PAAS,18.24,,596,596,0.0002327486,
07/14/2009,PACR,1.74,,4725,4725,0.0094297261,
07/14/2009,PACW,12.57,,10082,10082,0.0270336218,
07/14/2009,PAET,2.70,,8418,8418,0.0192694635,
07/14/2009,PALM,14.63,,25293,25293,0.0076009691,
07/14/2009,PANL,9.40,,1916,1916,0.0094594394,
07/14/2009,PARD,6.79,,2200,2200,0.0174131913,
07/14/2009,PARL,1.65,,292,292,0.0020670957,
07/14/2009,PATK,1.62,,400,400,0.114187839,
07/14/2009,PAYX,24.64,,102826,102826,0.0199524909,
07/14/2009,PBCT,15.36,,98679,98679,0.0197723353,
07/14/2009,PBIB,15.35,,164,164,0.328,
07/14/2009,PBIP,11.45,,246,246,0.2034739454,
07/14/2009,PBNY,8.22,,2320,2320,0.014397329,
07/14/2009,PCAP,1.74,,100,100,0.0008759022,
07/14/2009,PCAR,30.34,,45258,45258,0.0082686528,
07/14/2009,PCBC,2.13,,8018,8018,0.0107916622,
07/14/2009,PCBK,10.73,,793,793,0.0183492607,
07/14/2009,PCCC,5.41,,582,582,0.0180169025,
07/14/2009,PCLN,110.32,,7126,7126,0.0048989682,
07/14/2009,PCTI,5.51,,1362,1362,0.0114349042,
07/14/2009,PDCO,21.44,,29238,29238,0.0118518963,
07/14/2009,PDLI,7.94,,11146,11146,0.0048741088,
07/14/2009,PEBO,16.73,,644,644,0.0179592292,
07/14/2009,PEET,28.41,,3423,3423,0.0267271535,
07/14/2009,PEGA,22.93,,1377,1377,0.0084299585,
07/14/2009,PEIX,0.32,,300,300,0.0007416344,
07/14/2009,PENN,29.75,,53097,53097,0.0540694389,
07/14/2009,PENX,5.61,,616,616,0.0046431694,
07/14/2009,PERY,7.00,,1656,1656,0.0090703941,
07/14/2009,PESI,2.40,,4309,4309,0.0138402636,
07/14/2009,PETD,13.83,,1437,1437,0.0047921245,
07/14/2009,PETM,22.07,,42618,42618,0.0171094098,
07/14/2009,PETS,15.26,,3706,3706,0.0083438588,
07/14/2009,PFBX,20.09,,233,233,2.33,
07/14/2009,PFCB,33.32,,2437,2437,0.0047726761,
07/14/2009,PFWD,14.25,,9182,9182,0.0371061863,
07/14/2009,PGC,17.11,,537,537,0.0227263109,
07/14/2009,PGNX,5.36,,2374,2374,0.0131935799,
07/14/2009,PHD,9.57,,100,100,,
07/14/2009,PHF,5.50,,175,175,,
07/14/2009,PHHM,2.00,,200,200,0.0013156337,
07/14/2009,PHIIK,16.42,,815,815,0.0147106603,
07/14/2009,PHK,8.53,,100,100,,
07/14/2009,PICO,26.73,,3421,3421,0.0259893186,
07/14/2009,PINN,0.35,,1000,1000,0.0063970522,
07/14/2009,PKOH,2.97,,100,100,0.0018148491,
07/14/2009,PLAB,4.93,,2690,2690,0.0045456619,
07/14/2009,PLCE,27.25,,12079,12079,0.0199790269,
07/14/2009,PLCM,21.07,,8445,8445,0.0041686432,
07/14/2009,PLFE,8.24,,4442,4442,0.0285662838,
07/14/2009,PLLL,1.78,,3352,3352,0.0057965802,
07/14/2009,PLNR,1.08,,200,200,0.0064534865,
07/14/2009,PLPC,35.36,,137,137,0.0203990471,
07/14/2009,PLUG,0.72,,300,300,0.0005927706,
07/14/2009,PLUS,14.83,,227,227,0.1504307488,
07/14/2009,PLXS,21.59,,4013,4013,0.0085429874,
07/14/2009,PLXT,3.90,,2072,2072,0.01353576,
07/14/2009,PMACA,4.46,,1986,1986,0.0104815939,
07/14/2009,PMCS,7.89,,9885,9885,0.0016728473,
07/14/2009,PMFG,9.39,,806,806,0.018260909,
07/14/2009,PMTC,11.38,,10703,10703,0.0074341206,
07/14/2009,PMTI,12.56,,1943,1943,0.0208259644,
07/14/2009,PNFP,13.15,,5003,5003,0.0369555101,
07/14/2009,PNNT,7.04,,6614,6614,0.0628623567,
07/14/2009,PNNW,21.91,,262,262,0.1681643132,
07/14/2009,PNRA,53.15,,2867,2867,0.003324347,
07/14/2009,PNSN,8.73,,1302,1302,0.0041908342,
07/14/2009,PODD,6.19,,2533,2533,0.0130163771,
07/14/2009,POOL,17.90,,9598,9598,0.0124512549,
07/14/2009,POWI,23.91,,4106,4106,0.0066067564,
07/14/2009,POWL,35.78,,479,479,0.0072221217,
07/14/2009,POWR,4.83,,1058,1058,0.0067192948,
07/14/2009,POZN,7.53,,1624,1624,0.0098242642,
07/14/2009,PPDI,21.81,,6828,6828,0.0069206888,
07/14/2009,PPHM,0.79,,25000,25000,0.1407728995,
07/14/2009,PRAA,38.05,,1236,1236,0.0039304351,
07/14/2009,PRFT,6.42,,2078,2078,0.0089861014,
07/14/2009,PRGO,27.63,,7036,7036,0.0049302955,
07/14/2009,PRGS,20.59,,4352,4352,0.0106498045,
07/14/2009,PRGX,2.83,,1099,1099,0.0012320628,
07/14/2009,PRIM,7.42,,753,753,0.0248089088,
07/14/2009,PRKR,2.69,,6312,6312,0.0288631697,
07/14/2009,PRN,19.08,,214,214,,
07/14/2009,PROJ,4.79,,778,778,0.0174902208,
07/14/2009,PRPX,9.96,,882,882,0.0484615385,
07/14/2009,PRSC,9.72,,1560,1560,0.0296043268,
07/14/2009,PRSP,29.74,,6042,6042,0.012759595,
07/14/2009,PRTS,3.87,,857,857,0.02212298,
07/14/2009,PRWT,3.21,,1336,1336,0.02092273,
07/14/2009,PRXL,13.21,,5306,5306,0.0063396252,
07/14/2009,PSEC,9.40,,12480,12480,0.0773095293,
07/14/2009,PSEM,8.61,,3600,3600,0.0124474872,
07/14/2009,PSJ,16.37,,208,208,,
07/14/2009,PSMT,14.43,,2777,2777,0.0083167119,
07/14/2009,PSSI,17.80,,5113,5113,0.0072101114,
07/14/2009,PSUN,3.28,,9113,9113,0.0182250887,
07/14/2009,PSYS,22.63,,5565,5565,0.0050373388,
07/14/2009,PTEC,2.69,,2094,2094,0.008031882,
07/14/2009,PTEN,13.35,,77912,77912,0.0181704033,
07/14/2009,PTIE,4.33,,8415,8415,0.0277879595,
07/14/2009,PTNR,17.00,,4700,4700,0.0252821379,
07/14/2009,PTRY,16.42,,2482,2482,0.0070916109,
07/14/2009,PULB,6.76,,700,700,0.0241754447,
07/14/2009,PVSW,5.62,,1147,1147,0.0317728532,
07/14/2009,PVTB,21.03,,7830,7830,0.0310717985,
07/14/2009,PWAV,1.26,,10502,10502,0.0063587518,
07/14/2009,PWER,1.25,,4947,4947,0.0176337233,
07/14/2009,PWND,14.45,,221,221,0.0058611362,
07/14/2009,PWOD,31.73,,236,236,0.121025641,
07/14/2009,PWRD,29.64,,7626,7626,0.0159630919,
07/14/2009,PZZA,26.75,,2587,2587,0.0067761361,
07/14/2009,QADI,3.37,,773,773,0.0186895551,
07/14/2009,QCCO,5.44,,310,310,0.0304878049,
07/14/2009,QCOM,44.65,,214783,214783,0.0076762751,
07/14/2009,QCOR,5.47,,6238,6238,0.0047902297,
07/14/2009,QDEL,13.86,,8677,8677,0.0304538419,
07/14/2009,QGEN,17.78,,1820,1820,0.0028643239,
07/14/2009,QLGC,13.05,,114841,114841,0.0546122819,
07/14/2009,QLTY,2.00,,1000,1000,0.1612903226,
07/14/2009,QQQQ,35.72,,2181154,2181154,0.0126771712,
07/14/2009,QRCP,0.30,,200,200,0.0004403919,
07/14/2009,QSFT,13.96,,10507,10507,0.0088382351,
07/14/2009,QSII,53.59,,3622,3622,0.0071581594,
07/14/2009,QTWW,0.68,,500,500,0.0008649352,
07/14/2009,RADA,2.43,,200,200,2,
07/14/2009,RADS,8.79,,3992,3992,0.0280528169,
07/14/2009,RAIL,17.67,,1096,1096,0.0082287842,
07/14/2009,RAME,0.64,,200,200,0.0007209312,
07/14/2009,RATE,23.10,,2494,2494,0.008476218,
07/14/2009,RAVN,24.86,,1342,1342,0.0126221537,
07/14/2009,RBCAA,23.27,,832,832,0.0076766223,
07/14/2009,RBCN,10.02,,4592,4592,0.040366037,
07/14/2009,RBI,8.79,,907,907,0.0496632536,
07/14/2009,RCII,18.28,,55516,55516,0.0616941099,
07/14/2009,RCKB,11.50,,509,509,0.0231932926,
07/14/2009,RCNI,5.98,,2348,2348,0.0083599477,
07/14/2009,RCRC,13.36,,3484,3484,0.0077023753,
07/14/2009,RDEA,19.61,,876,876,0.0219422388,
07/14/2009,RDEN,7.41,,2264,2264,0.0105793898,
07/14/2009,RDNT,2.46,,1798,1798,0.0080243139,
07/14/2009,RECN,17.04,,4762,4762,0.0096378617,
07/14/2009,REFR,2.52,,800,800,0.0125944584,
07/14/2009,REGN,16.66,,6680,6680,0.0155214198,
07/14/2009,RENT,16.16,,870,870,0.0983050847,
07/14/2009,REVU,5.59,,898,898,0.0143219406,
07/14/2009,REXI,4.88,,777,777,0.0025162162,
07/14/2009,REXX,5.15,,2164,2164,0.0027406455,
07/14/2009,RFMD,3.60,,30133,30133,0.0095089059,
07/14/2009,RGEN,5.49,,1993,1993,0.014472337,
07/14/2009,RGLD,39.54,,3099,3099,0.0029485306,
07/14/2009,RGNC,14.94,,2850,2850,0.0090811472,
07/14/2009,RHIE,2.49,,100,100,0.0029451611,
07/14/2009,RICK,6.68,,100,100,0.000782785,
07/14/2009,RIGL,13.95,,5886,5886,0.01744,
07/14/2009,RIMG,15.86,,577,577,0.015882191,
07/14/2009,RIMM,66.18,,18847,18847,0.0008587418,
07/14/2009,RJET,5.25,,2659,2659,0.0055844216,
07/14/2009,RLRN,9.45,,400,400,0.0159980802,
07/14/2009,RMBS,15.70,,15381,15381,0.004493457,
07/14/2009,RMCF,7.73,,200,200,0.0142826537,
07/14/2009,RMIX,1.85,,2547,2547,0.0097236751,
07/14/2009,RMTI,7.75,,871,871,0.0355220228,
07/14/2009,RMTR,1.17,,600,600,0.0238379023,
07/14/2009,RNOW,12.79,,2755,2755,0.0193837992,
07/14/2009,RNST,13.46,,2732,2732,0.0123244599,
07/14/2009,RNWK,2.60,,13878,13878,0.0203525249,
07/14/2009,ROCK,6.51,,3583,3583,0.0109604378,
07/14/2009,ROCM,12.59,,617,617,0.0088992096,
07/14/2009,ROIAK,0.36,,200,200,0.0009073134,
07/14/2009,ROLL,21.66,,4536,4536,0.0107599065,
07/14/2009,ROMA,12.62,,744,744,0.0175616665,
07/14/2009,ROSE,8.20,,3910,3910,0.007950354,
07/14/2009,ROST,41.84,,11747,11747,0.0064492645,
07/14/2009,RPRX,4.57,,883,883,0.0178618388,
07/14/2009,RRGB,18.49,,26107,26107,0.05283096,
07/14/2009,RRST,11.93,,100,100,0.0130531262,
07/14/2009,RSCR,13.84,,2159,2159,0.0149536983,
07/14/2009,RSTI,18.01,,4125,4125,0.0155591682,
07/14/2009,RSYS,8.01,,2606,2606,0.0191610603,
07/14/2009,RTEC,5.97,,2834,2834,0.0110301988,
07/14/2009,RTIX,3.83,,4945,4945,0.0226580219,
07/14/2009,RUSHA,11.27,,2588,2588,0.0139511064,
07/14/2009,RUTH,3.20,,1420,1420,0.0058366319,
07/14/2009,RVBD,22.50,,7198,7198,0.0082818165,
07/14/2009,RWC,1.60,,400,400,,
07/14/2009,RWX,28.74,,2000,2000,,
07/14/2009,RYAAY,28.10,,5063,5063,0.0029316429,
07/14/2009,SAAS,3.08,,2046,2046,,
07/14/2009,SABA,3.89,,2001,2001,0.0284847967,
07/14/2009,SAFM,45.30,,3961,3961,0.0153983711,
07/14/2009,SAFT,30.61,,2668,2668,0.030877128,
07/14/2009,SAIA,16.79,,2122,2122,0.0237980419,
07/14/2009,SANM,0.41,,4290,4290,0.0015233964,
07/14/2009,SAPE,6.03,,12977,12977,0.0149376915,
07/14/2009,SASR,15.79,,1190,1190,0.0149446796,
07/14/2009,SATC,1.76,,3181,3181,0.0411130642,
07/14/2009,SATS,15.83,,380,380,0.0016741047,
07/14/2009,SBAC,24.06,,4303,4303,0.001626642,
07/14/2009,SBGI,1.10,,2640,2640,0.0045172451,
07/14/2009,SBIB,6.83,,12947,12947,0.0121905634,
07/14/2009,SBNY,28.41,,4846,4846,0.0145418972,
07/14/2009,SBSI,21.37,,812,812,0.0152551289,
07/14/2009,SBUX,14.11,,115403,115403,0.0070901533,
07/14/2009,SCBT,23.18,,924,924,0.0154107876,
07/14/2009,SCHL,18.90,,2789,2789,0.0067354134,
07/14/2009,SCHN,50.66,,4056,4056,0.0037424708,
07/14/2009,SCHS,19.27,,3091,3091,0.0115474563,
07/14/2009,SCHW,17.44,,272587,272587,0.0096427939,
07/14/2009,SCLN,2.87,,3073,3073,0.1797076023,
07/14/2009,SCMP,6.37,,662,662,0.0061124807,
07/14/2009,SCMR,3.24,,16816,16816,0.0216170077,
07/14/2009,SCOR,13.70,,1928,1928,0.013340991,
07/14/2009,SCSC,26.20,,3749,3749,0.012359884,
07/14/2009,SCSS,0.89,,200,200,0.0004345153,
07/14/2009,SCVL,12.11,,553,553,0.0113676075,
07/14/2009,SDS,56.57,,500,500,,
07/14/2009,SDTH,4.11,,1735,1735,0.0045507958,
07/14/2009,SDXC,11.07,,1658,1658,0.0083807213,
07/14/2009,SEAC,8.00,,2563,2563,0.0110583291,
07/14/2009,SEED,3.95,,1403,1403,0.0178899317,
07/14/2009,SEIC,17.41,,16469,16469,0.0089749955,
07/14/2009,SENEA,25.90,,525,525,0.0167533586,
07/14/2009,SEPR,15.51,,9360,9360,0.0072612458,
07/14/2009,SFLY,12.06,,1682,1682,0.0116550601,
07/14/2009,SFNC,27.46,,1475,1475,0.0225163339,
07/14/2009,SFSF,9.14,,2882,2882,0.0099714213,
07/14/2009,SGEN,8.99,,5208,5208,0.0118163832,
07/14/2009,SGI,4.65,,1842,1842,,
07/14/2009,SGMO,4.37,,2551,2551,0.0104999732,
07/14/2009,SGMS,15.62,,3805,3805,0.004240452,
07/14/2009,SHBI,19.04,,518,518,0.0238654688,
07/14/2009,SHEN,19.47,,1842,1842,0.014915946,
07/14/2009,SHFL,6.50,,7508,7508,0.0156034707,
07/14/2009,SHLD,59.69,,21392,21392,0.0081020789,
07/14/2009,SHLM,18.16,,3030,3030,0.0097796512,
07/14/2009,SHLO,3.98,,203,203,0.0085549328,
07/14/2009,SHOO,25.28,,4701,4701,0.0305396574,
07/14/2009,SHOR,8.11,,3561,3561,0.0189815728,
07/14/2009,SHPGY,40.70,,628,628,0.0005944442,
07/14/2009,SIAL,47.41,,17754,17754,0.0099883149,
07/14/2009,SIGA,7.44,,4972,4972,0.1101877092,
07/14/2009,SIGI,12.78,,12556,12556,0.0291144847,
07/14/2009,SIGM,14.50,,2339,2339,0.0036937022,
07/14/2009,SIMG,2.33,,6544,6544,0.0123130186,
07/14/2009,SINA,28.57,,24772,24772,0.0175969119,
07/14/2009,SIRI,0.38,,63281,63281,0.001294817,
07/14/2009,SIRO,20.93,,1461,1461,0.0057519459,
07/14/2009,SIVB,24.44,,9911,9911,0.005452192,
07/14/2009,SKIL,7.32,,200,200,0.0008317426,
07/14/2009,SKYW,11.01,,12673,12673,0.0240504503,
07/14/2009,SLAB,37.45,,5696,5696,0.0058976709,
07/14/2009,SLGN,49.04,,4225,4225,0.014683803,
07/14/2009,SLTM,1.41,,400,400,,
07/14/2009,SLXP,10.85,,3982,3982,0.0059772199,
07/14/2009,SMBL,6.13,,5501,5501,0.0076212564,
07/14/2009,SMCI,7.80,,1412,1412,0.0072393921,
07/14/2009,SMHG,5.79,,1186,1186,0.0076147184,
07/14/2009,SMMF,5.91,,800,800,0.5738880918,
07/14/2009,SMMX,6.71,,2701,2701,0.0183168317,
07/14/2009,SMOD,2.33,,2262,2262,0.0139159751,
07/14/2009,SMRT,9.81,,3957,3957,0.0104349615,
07/14/2009,SMSC,20.46,,8349,8349,0.0317232941,
07/14/2009,SMSI,9.33,,3546,3546,0.0101762331,
07/14/2009,SMTB,10.54,,904,904,0.0196555923,
07/14/2009,SMTC,15.95,,7270,7270,0.0045505958,
07/14/2009,SMTL,4.44,,1399,1399,0.0127915589,
07/14/2009,SMTS,15.17,,864,864,0.0141352006,
07/14/2009,SNBC,5.24,,1100,1100,0.0238497897,
07/14/2009,SNCR,11.43,,2334,2334,0.00633382,
07/14/2009,SNDA,52.05,,10625,10625,0.0100547356,
07/14/2009,SNDK,15.47,,111933,111933,0.0127590439,
07/14/2009,SNHY,15.38,,4433,4433,0.0321415883,
07/14/2009,SNIC,2.83,,694,694,0.0031873169,
07/14/2009,SNPS,18.75,,22361,22361,0.0171122594,
07/14/2009,SNTA,2.31,,1022,1022,0.0093441709,
07/14/2009,SNTS,2.84,,4593,4593,0.0546206995,
07/14/2009,SNWL,6.07,,15158,15158,0.0375100531,
07/14/2009,SOAP,4.18,,100,100,0.0016594756,
07/14/2009,SOHU,59.97,,21591,21591,0.0183551363,
07/14/2009,SOLF,5.79,,814,814,0.0008751945,
07/14/2009,SOLR,5.10,,2594,2594,0.0102046838,
07/14/2009,SOMX,1.38,,830,830,0.0404444011,
07/14/2009,SONC,9.88,,5758,5758,0.0093275815,
07/14/2009,SONE,6.67,,6704,6704,0.0144865841,
07/14/2009,SONO,18.63,,4496,4496,0.0312854449,
07/14/2009,SONS,1.47,,52275,52275,0.0322737779,
07/14/2009,SPAR,8.50,,3258,3258,0.0189441734,
07/14/2009,SPCHA,1.24,,200,200,0.0198019802,
07/14/2009,SPEC,9.59,,775,775,0.0198860721,
07/14/2009,SPIL,6.43,,2088,2088,0.0005450896,
07/14/2009,SPLS,20.03,,140491,140491,0.0122351774,
07/14/2009,SPNC,5.07,,1984,1984,0.0143117863,
07/14/2009,SPP,3.12,,100,100,,
07/14/2009,SPPI,4.95,,6928,6928,0.0413113737,
07/14/2009,SPRT,2.15,,2859,2859,0.020434273,
07/14/2009,SPSS,31.73,,1504,1504,0.0151367237,
07/14/2009,SPTN,12.35,,3115,3115,0.0120995308,
07/14/2009,SPWRA,22.74,,30142,30142,0.0248472498,
07/14/2009,SPWRB,19.90,,3146,3146,0.0038858888,
07/14/2009,SPY,90.61,,6116,6116,,
07/14/2009,SQNM,3.80,,4492,4492,0.0031579495,
07/14/2009,SRCE,16.84,,926,926,0.0158050146,
07/14/2009,SRCL,49.95,,12850,12850,0.0101464884,
07/14/2009,SRDX,23.04,,4352,4352,0.0345536685,
07/14/2009,SRSL,6.83,,966,966,0.1205540996,
07/14/2009,SSO,25.29,,1000,1000,,
07/14/2009,SSRI,17.93,,902,902,0.0006335689,
07/14/2009,SSTI,1.70,,8179,8179,0.0133155771,
07/14/2009,SSYS,10.71,,2229,2229,0.0103297742,
07/14/2009,STAN,16.06,,461,461,0.0095043708,
07/14/2009,STAR,23.88,,5267,5267,0.0100141837,
07/14/2009,STBA,12.65,,6655,6655,0.0392541997,
07/14/2009,STBC,8.34,,899,899,0.0136305056,
07/14/2009,STEC,27.27,,9506,9506,0.0027671319,
07/14/2009,STEI,4.76,,7563,7563,0.0087836457,
07/14/2009,STEL,13.06,,1650,1650,0.0158246058,
07/14/2009,STEM,1.61,,25394,25394,0.0229728043,
07/14/2009,STFC,16.38,,1232,1232,0.0151954315,
07/14/2009,STLD,14.54,,28474,28474,0.0031970523,
07/14/2009,STLY,10.70,,887,887,0.0731787806,
07/14/2009,STMP,8.47,,3643,3643,0.0468450628,
07/14/2009,STNR,26.70,,998,998,0.0076093172,
07/14/2009,STRA,203.36,,643,643,0.0028703948,
07/14/2009,STRL,14.79,,4916,4916,0.0189750537,
07/14/2009,STRM,2.74,,200,200,0.0434782609,
07/14/2009,STRT,14.60,,1100,1100,,
07/14/2009,STRZ,3.30,,101,101,0.1629032258,
07/14/2009,STSA,3.13,,10237,10237,0.0195548068,
07/14/2009,STSI,1.00,,63909,63909,0.1643238601,
07/14/2009,STST,19.66,,1023,1023,0.0062083907,
07/14/2009,STX,10.61,,128774,128774,0.0088919259,
07/14/2009,STXS,3.37,,1609,1609,0.0104159923,
07/14/2009,SUBK,26.05,,592,592,0.0136185875,
07/14/2009,SUMT,4.85,,5521,5521,0.142746335,
07/14/2009,SUNH,9.37,,5489,5489,0.0213586415,
07/14/2009,SUPG,2.13,,3669,3669,0.0270862863,
07/14/2009,SUPR,2.78,,200,200,0.0239894446,
07/14/2009,SUPX,26.53,,2454,2454,0.0277891018,
07/14/2009,SURW,11.89,,1056,1056,0.0307970486,
07/14/2009,SUSQ,4.25,,18505,18505,0.0143215804,
07/14/2009,SUSS,11.49,,472,472,0.0097976129,
07/14/2009,SUTR,2.99,,468,468,0.0066619217,
07/14/2009,SVNT,13.18,,5472,5472,0.0054593616,
07/14/2009,SVVS,10.75,,2923,2923,0.0041173247,
07/14/2009,SWHC,5.75,,10203,10203,0.0076820275,
07/14/2009,SWKS,10.55,,56576,56576,0.0120768172,
07/14/2009,SWSI,5.57,,1788,1788,0.0066672882,
07/14/2009,SWWC,4.95,,1516,1516,0.0123200949,
07/14/2009,SYBT,23.45,,859,859,0.0133075136,
07/14/2009,SYKE,18.54,,3662,3662,0.0093323615,
07/14/2009,SYMC,15.90,,136521,136521,0.0093738593,
07/14/2009,SYMM,5.74,,4178,4178,0.0128977687,
07/14/2009,SYMS,6.94,,405,405,0.0348597005,
07/14/2009,SYNA,32.51,,5489,5489,0.0054155115,
07/14/2009,SYNM,2.05,,3890,3890,0.0261301807,
07/14/2009,SYNO,14.97,,810,810,0.0106954696,
07/14/2009,SYNT,33.01,,2923,2923,0.0186636018,
07/14/2009,SYUT,10.64,,1299,1299,0.0269446173,
07/14/2009,TA,1.80,,400,400,,
07/14/2009,TACT,4.03,,100,100,0.0040600893,
07/14/2009,TAMB,3.46,,127,127,0.0158908909,
07/14/2009,TASR,4.73,,15911,15911,0.0259360686,
07/14/2009,TAST,7.02,,695,695,0.0183877027,
07/14/2009,TATTF,6.42,,300,300,3,
07/14/2009,TAXI,6.87,,917,917,0.0119397932,
07/14/2009,TBBK,5.62,,768,768,0.0069686411,
07/14/2009,TBNK,14.83,,3700,3700,,
07/14/2009,TBSI,7.17,,3281,3281,0.0031627755,
07/14/2009,TCAP,10.95,,458,458,0.072548709,
07/14/2009,TCBI,15.24,,7132,7132,0.0193920806,
07/14/2009,TCBK,13.84,,1231,1231,0.0121801595,
07/14/2009,TCLP,36.20,,163,163,0.003025522,
07/14/2009,TDC,23.45,,200,200,,
07/14/2009,TDSC,7.06,,1091,1091,0.0178393316,
07/14/2009,TEAM,5.78,,150,150,0.0022534703,
07/14/2009,TECD,31.21,,16516,16516,0.0150376761,
07/14/2009,TECH,59.91,,1459,1459,0.0074468791,
07/14/2009,TECUA,8.36,,1339,1339,0.008516349,
07/14/2009,TESO,7.43,,3107,3107,0.0159315359,
07/14/2009,TEVA,49.50,,14618,14618,0.0017583605,
07/14/2009,TF,8.54,,200,200,,
07/14/2009,TFSL,10.96,,11192,11192,0.0170210954,
07/14/2009,TGB,1.60,,1800,1800,,
07/14/2009,TGE,4.70,,866,866,0.0513185185,
07/14/2009,THFF,31.97,,1238,1238,0.0279023643,
07/14/2009,THLD,1.18,,300,300,0.0284711018,
07/14/2009,THOR,25.26,,14836,14836,0.0119442879,
07/14/2009,THQI,7.31,,12232,12232,0.0221257907,
07/14/2009,THRX,13.31,,4123,4123,0.0063164797,
07/14/2009,TIBB,2.15,,226,226,0.0187210073,
07/14/2009,TIBX,7.45,,31827,31827,0.0127025952,
07/14/2009,TICC,4.35,,1639,1639,0.0212531445,
07/14/2009,TIER,7.46,,1081,1081,0.108154077,
07/14/2009,TINY,5.46,,1594,1594,0.0127555716,
07/14/2009,TISI,14.25,,3998,3998,0.0156369169,
07/14/2009,TITN,11.60,,1548,1548,0.0012274288,
07/14/2009,TIVO,9.32,,21500,21500,0.0194989761,
07/14/2009,TKLC,17.57,,7915,7915,0.0166345465,
07/14/2009,TKTM,6.45,,6351,6351,0.0120490842,
07/14/2009,TLAB,5.22,,51781,51781,0.008540569,
07/14/2009,TLEO,18.26,,2784,2784,0.0047314028,
07/14/2009,TLGD,5.25,,388,388,0.0128664279,
07/14/2009,TMRK,4.85,,3297,3297,0.0147783914,
07/14/2009,TNDM,28.35,,8215,8215,0.0488119359,
07/14/2009,TOBC,31.31,,215,215,,
07/14/2009,TOMO,2.62,,3131,3131,0.0089129148,
07/14/2009,TOWN,13.67,,1927,1927,0.0144332677,
07/14/2009,TQNT,5.66,,16130,16130,0.0047568324,
07/14/2009,TRAD,8.61,,3048,3048,0.0081554458,
07/14/2009,TRAK,15.68,,6484,6484,0.0173636868,
07/14/2009,TRBN,2.60,,431,431,0.1168338303,
07/14/2009,TRCR,17.30,,486,486,0.0298874608,
07/14/2009,TREE,9.18,,696,696,0.0056711237,
07/14/2009,TRGL,5.78,,1453,1453,0.0222266414,
07/14/2009,TRID,1.72,,3881,3881,0.0064769909,
07/14/2009,TRLG,21.14,,3053,3053,0.0041451861,
07/14/2009,TRMB,19.64,,5318,5318,0.005730764,
07/14/2009,TRMK,18.83,,14951,14951,0.0246082286,
07/14/2009,TRMS,1.93,,100,100,0.0002934806,
07/14/2009,TROW,40.46,,97075,97075,0.0230008129,
07/14/2009,TRST,5.69,,15009,15009,0.019781558,
07/14/2009,TSCO,46.00,,6484,6484,0.0101565939,
07/14/2009,TSFG,1.17,,10765,10765,0.013942946,
07/14/2009,TSON,6.00,,1116,1116,0.0167291261,
07/14/2009,TSRA,26.41,,5747,5747,0.0049584053,
07/14/2009,TSTR,1.28,,1600,1600,0.0089959406,
07/14/2009,TSTY,6.36,,170,170,0.0182207931,
07/14/2009,TSYS,6.63,,3985,3985,0.0056041593,
07/14/2009,TTEC,15.10,,5934,5934,0.012346501,
07/14/2009,TTEK,28.02,,9550,9550,0.0121156454,
07/14/2009,TTES,11.28,,1737,1737,0.0115658896,
07/14/2009,TTGT,4.54,,715,715,0.0079777738,
07/14/2009,TTMI,8.58,,5697,5697,0.0188999104,
07/14/2009,TTWO,8.10,,21512,21512,0.0210829617,
07/14/2009,TUES,3.42,,3346,3346,0.0235844734,
07/14/2009,TUNE,1.93,,3212,3212,0.0129279985,
07/14/2009,TWGP,25.27,,5265,5265,0.0112714109,
07/14/2009,TWIN,6.93,,524,524,0.0067423248,
07/14/2009,TWLL,8.63,,970,970,0.009117484,
07/14/2009,TWMC,1.05,,114,114,0.0058872134,
07/14/2009,TWPG,5.15,,1479,1479,0.0155853188,
07/14/2009,TWTC,9.04,,11693,11693,0.0064121124,
07/14/2009,TXRH,11.10,,9350,9350,0.0113798459,
07/14/2009,TYPE,6.79,,1336,1336,0.0235796608,
07/14/2009,TZOO,11.75,,341,341,0.0022658259,
07/14/2009,UACL,16.08,,360,360,0.0193475574,
07/14/2009,UAUA,3.27,,27964,27964,0.0045292937,
07/14/2009,UBET,3.20,,13376,13376,0.3024533635,
07/14/2009,UBNK,13.55,,1570,1570,0.0210548902,
07/14/2009,UBSH,13.14,,838,838,0.0124216237,
07/14/2009,UBSI,18.18,,8243,8243,0.0131609199,
07/14/2009,UCBH,1.24,,14601,14601,0.0107731334,
07/14/2009,UCBI,5.56,,11964,11964,0.0329174176,
07/14/2009,UDRL,5.92,,715,715,0.0037807483,
07/14/2009,UEIC,19.14,,1456,1456,0.010832205,
07/14/2009,UEPS,12.78,,3710,3710,0.0073873479,
07/14/2009,UFCS,17.96,,4500,4500,0.0408329931,
07/14/2009,UFPI,33.01,,2177,2177,0.0105538723,
07/14/2009,UHAL,36.87,,922,922,0.0102799674,
07/14/2009,ULBI,6.27,,1016,1016,0.0075255357,
07/14/2009,ULGX,1.15,,200,200,0.007079646,
07/14/2009,ULTA,10.54,,11900,11900,0.0562528067,
07/14/2009,ULTI,21.13,,3667,3667,0.0250110834,
07/14/2009,ULTR,4.13,,1330,1330,0.0058163435,
07/14/2009,UMBF,39.72,,4662,4662,0.017405719,
07/14/2009,UMPQ,7.83,,9933,9933,0.0111115959,
07/14/2009,UNCA,5.51,,877,877,0.0121648426,
07/14/2009,UNFI,25.27,,3626,3626,0.008110496,
07/14/2009,UNTD,7.34,,15066,15066,0.0219382101,
07/14/2009,URBN,21.06,,25068,25068,0.004633763,
07/14/2009,USAK,13.37,,1479,1479,0.0294991723,
07/14/2009,USAP,15.40,,415,415,0.0110702091,
07/14/2009,USBI,24.43,,371,371,3.71,
07/14/2009,USLM,44.80,,113,113,0.013255132,
07/14/2009,USMO,12.47,,3039,3039,0.0089071128,
07/14/2009,USNA,26.88,,689,689,0.0096366332,
07/14/2009,USPH,13.87,,716,716,0.0065474231,
07/14/2009,USTR,37.31,,5607,5607,0.0168848924,
07/14/2009,UTEK,13.40,,2810,2810,0.0113058452,
07/14/2009,UTHR,83.77,,9195,9195,0.011743145,
07/14/2009,UTIW,11.31,,6456,6456,0.0072360295,
07/14/2009,UTK,4.10,,200,200,,
07/14/2009,UTMD,28.51,,200,200,0.0151354624,
07/14/2009,UTSI,1.61,,10181,10181,0.021956811,
07/14/2009,UVSP,19.60,,801,801,0.0183896963,
07/14/2009,VALE.P,14.16,,430,430,,
07/14/2009,VARI,36.79,,2577,2577,0.0072647826,
07/14/2009,VASC,7.50,,998,998,0.013936601,
07/14/2009,VCLK,10.41,,11031,11031,0.0120920668,
07/14/2009,VDSI,7.50,,3920,3920,0.0190134355,
07/14/2009,VEA,28.12,,575,575,,
07/14/2009,VECO,12.49,,3173,3173,0.0082888588,
07/14/2009,VICL,2.60,,2149,2149,0.0379836329,
07/14/2009,VICR,6.98,,1679,1679,0.0120953218,
07/14/2009,VIGN,13.23,,1654,1654,0.0037640012,
07/14/2009,VIRL,4.89,,1098,1098,0.0441549041,
07/14/2009,VISN,5.44,,1295,1295,0.0018446873,
07/14/2009,VITA,5.24,,5548,5548,0.0189198498,
07/14/2009,VIVO,21.77,,5478,5478,0.0137187334,
07/14/2009,VLCCF,13.31,,1122,1122,0.0073526039,
07/14/2009,VLCM,11.99,,2350,2350,0.0116110161,
07/14/2009,VLGEA,29.63,,383,383,0.0225135199,
07/14/2009,VLNC,1.56,,3096,3096,0.0064255694,
07/14/2009,VLTR,14.47,,1728,1728,0.00481964,
07/14/2009,VMED,9.85,,166770,166770,0.0263643266,
07/14/2009,VMM,11.88,,100,100,,
07/14/2009,VNDA,11.40,,4999,4999,0.012689943,
07/14/2009,VOCS,17.96,,6536,6536,0.0159849737,
07/14/2009,VOLC,14.69,,4403,4403,0.006900897,
07/14/2009,VOXX,7.10,,1477,1477,0.0122390805,
07/14/2009,VPFG,13.50,,1938,1938,0.0590781612,
07/14/2009,VPHM,5.94,,12412,12412,0.0114557644,
07/14/2009,VPRT,41.79,,5097,5097,0.0053091372,
07/14/2009,VRAD,9.65,,388,388,0.0109465369,
07/14/2009,VRGY,11.21,,3175,3175,0.0089266887,
07/14/2009,VRSN,18.58,,92795,92795,0.0303033767,
07/14/2009,VRTS,14.30,,382,382,,
07/14/2009,VRTU,9.06,,813,813,0.0068406704,
07/14/2009,VRTX,32.40,,12931,12931,0.0070539358,
07/14/2009,VRUS,12.98,,1324,1324,0.0119758313,
07/14/2009,VSAT,25.24,,2044,2044,0.01040924,
07/14/2009,VSCP,1.07,,200,200,0.0909090909,
07/14/2009,VSEA,28.17,,51975,51975,0.043741642,
07/14/2009,VSEC,26.94,,501,501,0.0136512262,
07/14/2009,VTA,9.33,,100,100,,
07/14/2009,VTAL,12.42,,1087,1087,0.01771599,
07/14/2009,VTIV,12.99,,5076,5076,0.0161679737,
07/14/2009,VVUS,5.96,,5260,5260,0.0072844408,
07/14/2009,VWO,31.17,,1749,1749,,
07/14/2009,WABC,48.21,,5454,5454,0.0153514883,
07/14/2009,WASH,17.60,,1064,1064,0.0140066347,
07/14/2009,WATG,9.68,,1005,1005,0.0119109699,
07/14/2009,WBCO,9.55,,587,587,0.0762337662,
07/14/2009,WBMD,29.12,,2278,2278,0.013003248,
07/14/2009,WBSN,15.81,,4500,4500,0.0104792267,
07/14/2009,WCRX,13.42,,5364,5364,0.0046848757,
07/14/2009,WDFC,30.45,,1490,1490,0.0129972087,
07/14/2009,WEDC,4.59,,1413,1413,0.0273439768,
07/14/2009,WEL,1.26,,1200,1200,,
07/14/2009,WERN,18.97,,5800,5800,0.0059715138,
07/14/2009,WEYS,22.52,,431,431,0.0144966533,
07/14/2009,WFD,9.07,,1924,1924,0.0166870485,
07/14/2009,WFMI,20.45,,40021,40021,0.011573657,
07/14/2009,WFSL,13.09,,10378,10378,0.0116503198,
07/14/2009,WGOV,17.76,,5859,5859,0.0062585054,
07/14/2009,WIBC,6.27,,1587,1587,0.0083527635,
07/14/2009,WIND,11.49,,6699,6699,0.0118455464,
07/14/2009,WINN,13.88,,5236,5236,0.0125506966,
07/14/2009,WIRE,20.92,,2795,2795,0.0121388739,
07/14/2009,WLFC,14.30,,541,541,0.0393769561,
07/14/2009,WMAR,5.52,,881,881,0.0105423128,
07/14/2009,WMGI,14.02,,4179,4179,0.0074777091,
07/14/2009,WOLF,2.16,,1714,1714,0.0073112574,
07/14/2009,WOOF,25.11,,3687,3687,0.0041899346,
07/14/2009,WPPGY,32.52,,918,918,0.0058264258,
07/14/2009,WRES,2.12,,3730,3730,0.0090982267,
07/14/2009,WRLD,20.39,,24424,24424,0.1676919697,
07/14/2009,WSBC,15.33,,1949,1949,0.0179086649,
07/14/2009,WSBF,3.37,,439,439,0.0126203823,
07/14/2009,WSFS,29.06,,528,528,0.0247110029,
07/14/2009,WSII,5.45,,2347,2347,0.0104380698,
07/14/2009,WTBA,4.99,,960,960,0.016260438,
07/14/2009,WTFC,16.36,,34290,34290,0.084520165,
07/14/2009,WTNY,8.90,,10005,10005,0.0122506854,
07/14/2009,WTSLA,2.86,,11022,11022,0.0049931866,
07/14/2009,WWWW,6.00,,1627,1627,0.0097978995,
07/14/2009,WYNN,33.80,,62213,62213,0.0362151756,
07/14/2009,XIDE,3.52,,5716,5716,0.0048399497,
07/14/2009,XLNX,19.83,,71040,71040,0.0086500693,
07/14/2009,XNPT,19.20,,3469,3469,0.0084810198,
07/14/2009,XPRT,3.52,,200,200,0.0016849909,
07/14/2009,XRAY,28.17,,26060,26060,0.0104717049,
07/14/2009,XRIT,1.45,,4099,4099,0.0346175934,
07/14/2009,XRTX,5.95,,675,675,0.0020447668,
07/14/2009,XTEX,2.53,,100,100,0.0005374379,
07/14/2009,XTXI,3.26,,5422,5422,0.0058878848,
07/14/2009,XXIA,6.94,,2036,2036,0.0083839486,
07/14/2009,YAVY,6.67,,994,994,0.017964613,
07/14/2009,YDNT,22.89,,335,335,0.0468138625,
07/14/2009,YHOO,15.18,,193632,193632,0.0104374527,
07/14/2009,YORW,15.62,,703,703,0.0469355054,
07/14/2009,YRCW,1.63,,5100,5100,0.0025185073,
07/14/2009,YTEC,7.53,,200,200,0.0025381999,
07/14/2009,ZBB,1.29,,400,400,,
07/14/2009,ZBRA,21.84,,3950,3950,0.0064382789,
07/14/2009,ZEUS,20.74,,1865,1865,0.0072049728,
07/14/2009,ZGEN,4.47,,3748,3748,0.0079998292,
07/14/2009,ZIGO,4.77,,917,917,0.00666013,
07/14/2009,ZINC,8.37,,4342,4342,0.0120141558,
07/14/2009,ZION,11.76,,45288,45288,0.0147138184,
07/14/2009,ZIXI,1.62,,3905,3905,0.0175902486,
07/14/2009,ZOLL,16.68,,6119,6119,0.0104098794,
07/14/2009,ZOLT,9.15,,2861,2861,0.0055223451,
07/14/2009,ZRAN,10.95,,6252,6252,0.0122419009,
07/14/2009,ZUMZ,8.07,,3121,3121,0.0073564768,
